PIP_Rev
1403
Instr_Num
007
yr	mo	dy	hr
2016	12	11	12
Station
HKL
RecNum	RecClass	IciLoc	IciTime	FT	ReadHere	Year	Month	Day	Hr	Min	Sec	PlotTime	Frames	x_cen	y_cent	Num_Holes	Ellip_Maj	Ellip_Min	Tot_Area	Wad_Dia	Long_X	Part_Or	Rec_BS	Rec_SS	Hy_Rad	Diag	LCol_x	RCol_x	UpRw_y	LwRw_y	Box_x	Box_y	Min_Grey	Q	R	
0	nd	Site	nd	Logical	nd	nd	nd	nd	nd	nd 	nd	nd	Interval	Interval	Interval	nd	mm	mm	mm^2	mm	mm	deg	mm	mm	mm	mm	nd	nd	nd	nd	mm	mm	nd	16_bit	8_bit	
 1	2	007	6121112300	0	-1	2016	12	11	12	30	59	0.521516	21896	   0	   0	0	0	0	0	0	0	0	0	0	0	0	0	0	0	0	0	0	0	0	0
 2	2	007	6121112300	0	-1	2016	12	11	12	31	59	0.522211	22794	   0	   0	0	0	0	0	0	0	0	0	0	0	0	0	0	0	0	0	0	0	0	0
 3	2	007	6121112300	0	-1	2016	12	11	12	32	59	0.522905	22794	   0	   0	0	0	0	0	0	0	0	0	0	0	0	0	0	0	0	0	0	0	0	0
 4	2	007	6121112300	0	-1	2016	12	11	12	33	59	0.523600	22792	   0	   0	0	0	0	0	0	0	0	0	0	0	0	0	0	0	0	0	0	0	0	0
 5	0	007	6121112300	0	120132	2016	12	11	12	34	11	0.523738	74	612	56	0	 0.940	 0.514	 0.380	 0.70	 0.60	97.09	 0.60	 0.60	 0.64	 0.84	610.00	616.00	 52.00	 60.00	 0.84	 0.84	  145	      2	  28995
 6	0	007	6121112300	0	120336	2016	12	11	12	34	11	0.523738	76	435	110	0	 0.991	 0.488	 0.380	 0.70	 0.60	91.29	 0.61	 0.61	 0.62	 0.87	433.00	439.00	106.00	114.00	 0.87	 0.87	  145	      2	  28997
 7	0	007	6121112300	0	120452	2016	12	11	12	34	11	0.523738	77	348	137	0	 1.190	 0.621	 0.580	 0.86	 0.70	97.94	 0.75	 0.75	 0.78	 1.05	345.00	352.00	132.00	142.00	 1.05	 1.05	  125	      2	  28998
 8	0	007	6121112300	0	120608	2016	12	11	12	34	11	0.523738	78	262	164	0	 1.114	 0.617	 0.540	 0.83	 0.80	81.42	 0.71	 0.71	 0.76	 1.00	258.00	266.00	160.00	168.00	 1.00	 1.00	  124	      2	  28999
 9	0	007	6121112300	0	120756	2016	12	11	12	34	11	0.523738	79	176	190	0	 1.024	 0.497	 0.400	 0.71	 0.70	94.99	 0.63	 0.63	 0.63	 0.89	173.00	180.00	186.00	196.00	 0.89	 0.89	  133	      2	  29000
10	0	007	6121112300	0	120876	2016	12	11	12	34	11	0.523738	80	92	217	0	 1.214	 0.608	 0.580	 0.86	 0.80	88.27	 0.75	 0.75	 0.77	 1.07	 88.00	 96.00	212.00	222.00	 1.07	 1.07	  120	      2	  29001
11	1	007	6121112300	0	-1	2016	12	11	12	34	11	0.523738	 380	   0	   0	0	0	0	0	0	0	0	0	0	0	0	0	0	0	0	0	0	0	0	0
12	0	007	6121112300	0	134580	2016	12	11	12	34	18	0.523819	28	28	71	0	 1.274	 0.320	 0.320	 0.64	 0.90	162.37	 1.19	 0.27	 0.44	 1.22	 23.00	 34.00	 68.00	 74.00	 1.22	 1.22	  128	      2	  31608
13	1	007	6121112300	0	-1	2016	12	11	12	34	18	0.523819	 380	   0	   0	0	0	0	0	0	0	0	0	0	0	0	0	0	0	0	0	0	0	0	0
14	2	007	6121112300	0	-1	2016	12	11	12	34	59	0.524294	22792	   0	   0	0	0	0	0	0	0	0	0	0	0	0	0	0	0	0	0	0	0	0	0
15	2	007	6121112300	0	-1	2016	12	11	12	35	59	0.524988	22793	   0	   0	0	0	0	0	0	0	0	0	0	0	0	0	0	0	0	0	0	0	0	0
16	2	007	6121112300	0	-1	2016	12	11	12	36	59	0.525683	22793	   0	   0	0	0	0	0	0	0	0	0	0	0	0	0	0	0	0	0	0	0	0	0
17	2	007	6121112300	0	-1	2016	12	11	12	37	59	0.526377	22792	   0	   0	0	0	0	0	0	0	0	0	0	0	0	0	0	0	0	0	0	0	0	0
18	2	007	6121112300	0	-1	2016	12	11	12	38	59	0.527072	22792	   0	   0	0	0	0	0	0	0	0	0	0	0	0	0	0	0	0	0	0	0	0	0
19	0	007	6121112300	0	250436	2016	12	11	12	39	43	0.527581	315	458	251	0	 1.110	 0.482	 0.420	 0.73	 0.60	82.61	 0.85	 0.49	 0.63	 0.98	456.00	462.00	248.00	256.00	 0.98	 0.98	  121	      6	  24286
20	0	007	6121112300	0	250548	2016	12	11	12	39	43	0.527581	316	387	272	0	 1.082	 0.541	 0.460	 0.77	 0.60	81.76	 0.67	 0.67	 0.68	 0.95	384.00	390.00	268.00	276.00	 0.95	 0.95	  108	      6	  24287
21	0	007	6121112300	0	250664	2016	12	11	12	39	43	0.527581	317	316	293	0	 1.006	 0.506	 0.400	 0.71	 0.60	80.20	 0.63	 0.63	 0.64	 0.88	313.00	319.00	290.00	298.00	 0.88	 0.88	  119	      6	  24288
22	0	007	6121112300	0	250776	2016	12	11	12	39	43	0.527581	318	245	314	0	 1.039	 0.416	 0.340	 0.66	 0.50	84.00	 0.84	 0.41	 0.55	 0.93	243.00	248.00	310.00	318.00	 0.93	 0.93	  132	      6	  24289
23	0	007	6121112300	0	250880	2016	12	11	12	39	43	0.527581	319	176	334	0	 1.062	 0.360	 0.300	 0.62	 0.60	79.11	 0.92	 0.33	 0.48	 0.98	173.00	179.00	330.00	338.00	 0.98	 0.98	  124	      6	  24290
24	0	007	6121112300	0	250980	2016	12	11	12	39	43	0.527581	320	106	356	0	 0.990	 0.463	 0.360	 0.68	 0.60	89.99	 0.70	 0.51	 0.59	 0.87	104.00	110.00	352.00	360.00	 0.87	 0.87	  128	      6	  24291
25	1	007	6121112300	0	-1	2016	12	11	12	39	43	0.527581	 381	   0	   0	0	0	0	0	0	0	0	0	0	0	0	0	0	0	0	0	0	0	0	0
26	2	007	6121112300	0	-1	2016	12	11	12	39	57	0.527743	22032	   0	   0	0	0	0	0	0	0	0	0	0	0	0	0	0	0	0	0	0	0	0	0
-99	-99	-99	-99	-99	-99	-99	-99	-99	-99	-99	-99	-99	-99	-99	-99	-99	-99	-99	-99	-99	-99	-99	-99	-99	-99	-99	-99	-99	-99	-99	-99	-99	-99	-99	-99	