PIP_Rev
1403
Instr_Num
007
yr	mo	dy	hr
2016	12	11	03
Station
HKL
RecNum	RecClass	IciLoc	IciTime	FT	ReadHere	Year	Month	Day	Hr	Min	Sec	PlotTime	Frames	x_cen	y_cent	Num_Holes	Ellip_Maj	Ellip_Min	Tot_Area	Wad_Dia	Long_X	Part_Or	Rec_BS	Rec_SS	Hy_Rad	Diag	LCol_x	RCol_x	UpRw_y	LwRw_y	Box_x	Box_y	Min_Grey	Q	R	
0	nd	Site	nd	Logical	nd	nd	nd	nd	nd	nd 	nd	nd	Interval	Interval	Interval	nd	mm	mm	mm^2	mm	mm	deg	mm	mm	mm	mm	nd	nd	nd	nd	mm	mm	nd	16_bit	8_bit	
 1	0	007	6121103500	0	297136	2016	12	11	03	50	23	0.159988	223	537	217	0	 1.371	 0.334	 0.360	 0.68	 1.00	15.95	 1.29	 0.28	 0.46	 1.32	532.00	544.00	214.00	220.00	 1.32	 1.32	  118	      0	   8067
 2	0	007	6121103500	0	297248	2016	12	11	03	50	23	0.159988	224	285	253	0	 1.271	 0.361	 0.360	 0.68	 0.90	17.83	 1.16	 0.31	 0.49	 1.20	280.00	291.00	250.00	256.00	 1.20	 1.20	  109	      0	   8068
 3	0	007	6121103500	0	297360	2016	12	11	03	50	23	0.159988	225	30	289	0	 1.096	 0.349	 0.300	 0.62	 0.80	13.30	 0.97	 0.31	 0.47	 1.02	 26.00	 36.00	288.00	292.00	 1.02	 1.02	  100	      0	   8069
 4	1	007	6121103500	0	-1	2016	12	11	03	50	23	0.159988	 380	   0	   0	0	0	0	0	0	0	0	0	0	0	0	0	0	0	0	0	0	0	0	0
 5	0	007	6121103500	0	315468	2016	12	11	03	50	24	0.160000	288	131	320	0	 1.060	 0.456	 0.380	 0.70	 0.80	148.19	 0.82	 0.47	 0.59	 0.94	128.00	136.00	316.00	324.00	 0.94	 0.94	  147	      0	   8512
 6	1	007	6121103500	0	-1	2016	12	11	03	50	24	0.160000	 380	   0	   0	0	0	0	0	0	0	0	0	0	0	0	0	0	0	0	0	0	0	0	0
 7	0	007	6121103500	0	347416	2016	12	11	03	50	26	0.160023	314	55	299	0	 1.070	 0.476	 0.400	 0.71	 0.80	155.40	 0.80	 0.50	 0.62	 0.94	 52.00	 60.00	296.00	302.00	 0.94	 0.94	  133	      0	   9297
 8	1	007	6121103500	0	-1	2016	12	11	03	50	26	0.160023	 380	   0	   0	0	0	0	0	0	0	0	0	0	0	0	0	0	0	0	0	0	0	0	0
 9	2	007	6121103500	0	-1	2016	12	11	03	50	59	0.160405	21897	   0	   0	0	0	0	0	0	0	0	0	0	0	0	0	0	0	0	0	0	0	0	0
10	0	007	6121103500	0	751368	2016	12	11	03	51	 7	0.160498	71	553	282	0	 1.553	 0.672	 0.820	 1.02	 1.10	78.46	 1.19	 0.69	 0.87	 1.38	548.00	559.00	276.00	288.00	 1.38	 1.38	  111	      0	  24628
11	0	007	6121103500	0	751572	2016	12	11	03	51	 7	0.160498	72	350	282	0	 1.525	 0.551	 0.660	 0.92	 0.90	95.15	 1.29	 0.51	 0.73	 1.39	346.00	355.00	276.00	288.00	 1.39	 1.39	  118	      0	  24629
12	0	007	6121103500	0	751744	2016	12	11	03	51	 7	0.160498	73	145	282	0	 1.440	 0.654	 0.740	 0.97	 1.00	90.56	 1.06	 0.70	 0.84	 1.27	141.00	151.00	276.00	288.00	 1.27	 1.27	  119	      0	  24630
13	1	007	6121103500	0	-1	2016	12	11	03	51	 7	0.160498	 380	   0	   0	0	0	0	0	0	0	0	0	0	0	0	0	0	0	0	0	0	0	0	0
14	0	007	6121103500	0	963060	2016	12	11	03	51	22	0.160671	368	327	226	0	 0.969	 0.421	 0.320	 0.64	 0.70	67.63	 0.74	 0.43	 0.55	 0.86	324.00	331.00	222.00	230.00	 0.86	 0.86	  105	      0	  30625
15	0	007	6121103500	0	963164	2016	12	11	03	51	22	0.160671	369	138	243	0	 0.954	 0.481	 0.360	 0.68	 0.80	 0.05	 0.59	 0.59	 0.61	 0.84	135.00	143.00	240.00	246.00	 0.84	 0.84	  100	      0	  30626
16	1	007	6121103500	0	-1	2016	12	11	03	51	22	0.160671	 379	   0	   0	0	0	0	0	0	0	0	0	0	0	0	0	0	0	0	0	0	0	0	0
17	0	007	6121103500	0	1002708	2016	12	11	03	51	25	0.160706	208	565	194	0	 0.616	 0.248	 0.120	 0.39	 0.40	134.19	 0.49	 0.24	 0.33	 0.55	564.00	568.00	192.00	196.00	 0.55	 0.55	  135	      0	  31604
18	0	007	6121103500	0	1002708	2016	12	11	03	51	25	0.160706	208	560	206	0	 0.896	 0.398	 0.280	 0.60	 0.70	 9.22	 0.67	 0.42	 0.51	 0.79	557.00	565.00	204.00	208.00	 0.79	 0.79	  128	      0	  31604
19	0	007	6121103500	0	1002828	2016	12	11	03	51	25	0.160706	209	324	210	0	 2.418	 0.421	 0.800	 1.01	 0.70	64.11	 2.39	 0.33	 0.59	 2.42	318.00	331.00	200.00	220.00	 2.42	 2.42	  108	      0	  31605
20	0	007	6121103500	0	1003012	2016	12	11	03	51	25	0.160706	210	83	219	0	 2.255	 0.305	 0.540	 0.83	 0.60	69.04	 2.29	 0.24	 0.43	 2.30	 78.00	 88.00	208.00	228.00	 2.30	 2.30	  117	      0	  31606
21	1	007	6121103500	0	-1	2016	12	11	03	51	25	0.160706	 380	   0	   0	0	0	0	0	0	0	0	0	0	0	0	0	0	0	0	0	0	0	0	0
22	0	007	6121103500	0	1012504	2016	12	11	03	51	26	0.160718	63	212	224	0	 0.410	 0.186	 0.060	 0.28	 0.30	180.00	 0.30	 0.20	 0.24	 0.36	211.00	214.00	224.00	226.00	 0.36	 0.36	  156	      0	  31839
23	0	007	6121103500	0	1012504	2016	12	11	03	51	26	0.160718	63	246	315	0	 0.827	 0.370	 0.240	 0.55	 0.70	 0.07	 0.62	 0.39	 0.48	 0.73	243.00	250.00	314.00	318.00	 0.73	 0.73	  123	      0	  31839
24	0	007	6121103500	0	1012604	2016	12	11	03	51	26	0.160718	64	30	313	0	 1.388	 0.367	 0.400	 0.71	 0.90	158.55	 1.28	 0.31	 0.50	 1.32	 25.00	 36.00	308.00	316.00	 1.32	 1.32	  121	      0	  31840
25	1	007	6121103500	0	-1	2016	12	11	03	51	26	0.160718	 380	   0	   0	0	0	0	0	0	0	0	0	0	0	0	0	0	0	0	0	0	0	0	0
26	0	007	6121103500	0	1056400	2016	12	11	03	51	29	0.160752	 6	596	136	0	 2.046	 0.411	 0.660	 0.92	 1.90	 2.90	 1.99	 0.33	 0.57	 2.01	585.00	604.00	134.00	140.00	 2.01	 2.01	  118	      1	    155
27	0	007	6121103500	0	1056552	2016	12	11	03	51	29	0.160752	 7	384	142	0	 1.186	 0.472	 0.440	 0.75	 1.00	 2.45	 0.96	 0.46	 0.62	 1.06	379.00	389.00	140.00	146.00	 1.06	 1.06	  112	      1	    156
28	0	007	6121103500	0	1056676	2016	12	11	03	51	29	0.160752	 8	168	148	0	 1.048	 0.461	 0.380	 0.70	 0.80	 0.48	 0.79	 0.48	 0.60	 0.93	164.00	173.00	146.00	152.00	 0.93	 0.93	  121	      1	    157
29	0	007	6121103500	0	1064704	2016	12	11	03	51	29	0.160752	200	569	123	0	 0.981	 0.389	 0.300	 0.62	 0.60	101.40	 0.80	 0.38	 0.51	 0.88	566.00	572.00	118.00	126.00	 0.88	 0.88	  124	      1	    349
30	1	007	6121103500	0	-1	2016	12	11	03	51	29	0.160752	 380	   0	   0	0	0	0	0	0	0	0	0	0	0	0	0	0	0	0	0	0	0	0	0
31	0	007	6121103500	0	1088992	2016	12	11	03	51	31	0.160775	34	490	380	0	 1.063	 0.407	 0.340	 0.66	 0.60	99.05	 0.88	 0.39	 0.54	 0.96	488.00	494.00	376.00	384.00	 0.96	 0.96	  111	      1	    943
32	0	007	6121103500	0	1089096	2016	12	11	03	51	31	0.160775	35	287	374	0	 1.062	 0.503	 0.420	 0.73	 0.60	93.55	 0.73	 0.57	 0.64	 0.93	285.00	291.00	370.00	378.00	 0.93	 0.93	  106	      1	    944
33	0	007	6121103500	0	1089260	2016	12	11	03	51	31	0.160775	36	84	367	0	 1.191	 0.492	 0.460	 0.77	 0.70	86.33	 0.94	 0.49	 0.64	 1.06	 81.00	 88.00	362.00	372.00	 1.06	 1.06	   97	      1	    945
34	1	007	6121103500	0	-1	2016	12	11	03	51	31	0.160775	 380	   0	   0	0	0	0	0	0	0	0	0	0	0	0	0	0	0	0	0	0	0	0	0
35	0	007	6121103500	0	1110708	2016	12	11	03	51	32	0.160787	182	195	31	0	 0.854	 0.298	 0.200	 0.50	 0.50	131.70	 0.73	 0.27	 0.40	 0.78	192.00	198.00	 28.00	 34.00	 0.78	 0.78	  125	      1	   1471
36	0	007	6121103500	0	1110708	2016	12	11	03	51	32	0.160787	182	167	336	0	 0.592	 0.215	 0.100	 0.36	 0.50	180.00	 0.50	 0.20	 0.29	 0.54	165.00	170.00	336.00	338.00	 0.54	 0.54	  148	      1	   1471
37	1	007	6121103500	0	-1	2016	12	11	03	51	32	0.160787	 380	   0	   0	0	0	0	0	0	0	0	0	0	0	0	0	0	0	0	0	0	0	0	0
38	0	007	6121103500	0	1124184	2016	12	11	03	51	33	0.160799	122	217	36	0	 0.950	 0.402	 0.300	 0.62	 0.60	41.67	 0.74	 0.41	 0.52	 0.84	214.00	221.00	 34.00	 40.00	 0.84	 0.84	  103	      1	   1791
39	1	007	6121103500	0	-1	2016	12	11	03	51	33	0.160799	 379	   0	   0	0	0	0	0	0	0	0	0	0	0	0	0	0	0	0	0	0	0	0	0
40	0	007	6121103500	0	1249352	2016	12	11	03	51	41	0.160891	175	47	70	0	 0.921	 0.304	 0.220	 0.53	 0.80	 3.76	 0.80	 0.27	 0.41	 0.85	 43.00	 51.00	 68.00	 72.00	 0.85	 0.85	  143	      1	   4883
41	0	007	6121103500	0	1249352	2016	12	11	03	51	41	0.160891	175	446	454	0	 0.500	 0.204	 0.080	 0.32	 0.40	180.00	 0.40	 0.20	 0.27	 0.45	445.00	449.00	454.00	456.00	 0.45	 0.45	  144	      1	   4883
42	1	007	6121103500	0	-1	2016	12	11	03	51	41	0.160891	 379	   0	   0	0	0	0	0	0	0	0	0	0	0	0	0	0	0	0	0	0	0	0	0
43	0	007	6121103500	0	1373656	2016	12	11	03	51	50	0.160995	213	468	420	0	 0.857	 0.475	 0.320	 0.64	 0.60	50.65	 0.54	 0.54	 0.59	 0.77	465.00	471.00	418.00	424.00	 0.77	 0.77	  141	      1	   8339
44	0	007	6121103500	0	1373760	2016	12	11	03	51	50	0.160995	214	312	426	0	 1.818	 0.420	 0.600	 0.87	 0.80	62.98	 1.73	 0.35	 0.58	 1.76	308.00	316.00	416.00	432.00	 1.76	 1.76	  132	      1	   8340
45	0	007	6121103500	0	1373912	2016	12	11	03	51	50	0.160995	215	154	434	0	 1.037	 0.516	 0.420	 0.73	 0.70	57.63	 0.64	 0.64	 0.65	 0.91	151.00	158.00	430.00	438.00	 0.91	 0.91	  142	      1	   8341
46	1	007	6121103500	0	-1	2016	12	11	03	51	50	0.160995	 380	   0	   0	0	0	0	0	0	0	0	0	0	0	0	0	0	0	0	0	0	0	0	0
47	0	007	6121103500	0	1405032	2016	12	11	03	51	52	0.161019	225	411	407	0	 0.893	 0.399	 0.280	 0.60	 0.60	139.01	 0.67	 0.42	 0.52	 0.79	408.00	415.00	404.00	410.00	 0.79	 0.79	  142	      1	   9111
48	1	007	6121103500	0	-1	2016	12	11	03	51	52	0.161019	 380	   0	   0	0	0	0	0	0	0	0	0	0	0	0	0	0	0	0	0	0	0	0	0
49	0	007	6121103500	0	1414136	2016	12	11	03	51	53	0.161030	61	232	289	0	 0.950	 0.402	 0.300	 0.62	 0.70	30.59	 0.74	 0.41	 0.52	 0.84	229.00	236.00	286.00	292.00	 0.84	 0.84	  114	      1	   9327
50	0	007	6121103500	0	1426876	2016	12	11	03	51	53	0.161030	356	72	26	0	 0.894	 0.427	 0.300	 0.62	 0.60	132.96	 0.60	 0.50	 0.55	 0.78	 69.00	 75.00	 24.00	 30.00	 0.78	 0.78	  118	      1	   9622
51	1	007	6121103500	0	-1	2016	12	11	03	51	53	0.161030	 379	   0	   0	0	0	0	0	0	0	0	0	0	0	0	0	0	0	0	0	0	0	0	0
52	0	007	6121103500	0	1439452	2016	12	11	03	51	54	0.161042	269	585	277	0	 1.361	 0.430	 0.460	 0.77	 1.10	172.21	 1.20	 0.38	 0.58	 1.26	580.00	591.00	274.00	282.00	 1.26	 1.26	  119	      1	   9914
53	0	007	6121103500	0	1439584	2016	12	11	03	51	54	0.161042	270	417	218	0	 1.586	 0.450	 0.560	 0.84	 1.20	158.17	 1.44	 0.39	 0.61	 1.49	412.00	424.00	214.00	224.00	 1.49	 1.49	  111	      1	   9915
54	0	007	6121103500	0	1439732	2016	12	11	03	51	54	0.161042	271	246	158	0	 1.563	 0.375	 0.460	 0.77	 1.00	151.65	 1.47	 0.31	 0.52	 1.51	241.00	252.00	154.00	164.00	 1.51	 1.51	  122	      1	   9916
55	1	007	6121103500	0	-1	2016	12	11	03	51	54	0.161042	 380	   0	   0	0	0	0	0	0	0	0	0	0	0	0	0	0	0	0	0	0	0	0	0
56	0	007	6121103500	0	1445080	2016	12	11	03	51	55	0.161053	19	189	459	0	 1.000	 0.458	 0.360	 0.68	 0.80	14.27	 0.73	 0.50	 0.59	 0.88	186.00	194.00	456.00	462.00	 0.88	 0.88	   96	      1	  10044
57	0	007	6121103500	0	1459380	2016	12	11	03	51	55	0.161053	368	455	35	0	 1.718	 0.415	 0.560	 0.84	 0.90	51.83	 1.62	 0.35	 0.57	 1.65	451.00	461.00	 30.00	 42.00	 1.65	 1.65	  121	      1	  10393
58	0	007	6121103500	0	1459504	2016	12	11	03	51	55	0.161053	369	280	26	0	 1.545	 0.363	 0.440	 0.75	 0.70	48.62	 1.46	 0.30	 0.50	 1.49	276.00	286.00	 22.00	 32.00	 1.49	 1.49	  112	      1	  10394
59	1	007	6121103500	0	-1	2016	12	11	03	51	55	0.161053	 380	   0	   0	0	0	0	0	0	0	0	0	0	0	0	0	0	0	0	0	0	0	0	0
60	0	007	6121103500	0	1462144	2016	12	11	03	51	56	0.161065	49	271	18	0	 0.927	 0.412	 0.300	 0.62	 0.50	73.72	 0.70	 0.43	 0.53	 0.82	269.00	274.00	 14.00	 22.00	 0.82	 0.82	  112	      1	  10454
61	1	007	6121103500	0	-1	2016	12	11	03	51	56	0.161065	 380	   0	   0	0	0	0	0	0	0	0	0	0	0	0	0	0	0	0	0	0	0	0	0
62	0	007	6121103500	0	1477044	2016	12	11	03	51	57	0.161076	22	151	364	0	 1.001	 0.407	 0.320	 0.64	 0.50	87.93	 0.80	 0.40	 0.53	 0.90	149.00	154.00	360.00	368.00	 0.90	 0.90	  129	      1	  10807
63	0	007	6121103500	0	1477580	2016	12	11	03	51	57	0.161076	30	272	161	0	 1.237	 0.371	 0.360	 0.68	 0.40	81.03	 1.11	 0.32	 0.50	 1.16	270.00	274.00	156.00	168.00	 1.16	 1.16	  141	      1	  10815
64	1	007	6121103500	0	-1	2016	12	11	03	51	57	0.161076	 380	   0	   0	0	0	0	0	0	0	0	0	0	0	0	0	0	0	0	0	0	0	0	0
65	0	007	6121103500	0	1500592	2016	12	11	03	51	58	0.161088	208	622	325	0	 1.013	 0.377	 0.300	 0.62	 0.80	169.60	 0.85	 0.35	 0.50	 0.92	618.00	627.00	324.00	328.00	 0.92	 0.92	  124	      1	  11373
66	0	007	6121103500	0	1507016	2016	12	11	03	51	58	0.161088	354	540	427	0	 1.170	 0.370	 0.340	 0.66	 0.60	91.50	 1.03	 0.33	 0.50	 1.09	537.00	543.00	422.00	432.00	 1.09	 1.09	  119	      1	  11519
67	0	007	6121103500	0	1507116	2016	12	11	03	51	58	0.161088	355	360	414	0	 1.434	 0.568	 0.640	 0.90	 0.70	94.25	 1.16	 0.55	 0.75	 1.29	356.00	364.00	408.00	420.00	 1.29	 1.29	  104	      1	  11520
68	0	007	6121103500	0	1507268	2016	12	11	03	51	58	0.161088	356	177	400	0	 1.340	 0.551	 0.580	 0.86	 0.70	109.86	 1.06	 0.54	 0.72	 1.20	174.00	182.00	396.00	406.00	 1.20	 1.20	   94	      1	  11521
69	0	007	6121103500	0	1508272	2016	12	11	03	51	58	0.161088	378	264	267	0	 1.348	 0.340	 0.360	 0.68	 0.70	140.29	 1.26	 0.29	 0.47	 1.29	261.00	270.00	262.00	272.00	 1.29	 1.29	  151	      1	  11543
70	1	007	6121103500	0	-1	2016	12	11	03	51	58	0.161088	 380	   0	   0	0	0	0	0	0	0	0	0	0	0	0	0	0	0	0	0	0	0	0	0
71	0	007	6121103500	0	1522576	2016	12	11	03	51	59	0.161100	347	463	339	0	 0.993	 0.436	 0.340	 0.66	 0.70	127.72	 0.75	 0.45	 0.56	 0.88	460.00	467.00	336.00	344.00	 0.88	 0.88	  128	      1	  11892
72	0	007	6121103500	0	1522684	2016	12	11	03	51	59	0.161100	348	279	362	0	 0.891	 0.486	 0.340	 0.66	 0.70	 6.26	 0.56	 0.56	 0.60	 0.80	276.00	283.00	360.00	366.00	 0.80	 0.80	  115	      1	  11893
73	1	007	6121103500	0	-1	2016	12	11	03	51	59	0.161100	 380	   0	   0	0	0	0	0	0	0	0	0	0	0	0	0	0	0	0	0	0	0	0	0
74	2	007	6121103500	0	-1	2016	12	11	03	51	59	0.161100	22794	   0	   0	0	0	0	0	0	0	0	0	0	0	0	0	0	0	0	0	0	0	0	0
75	0	007	6121103500	0	1529040	2016	12	11	03	52	 0	0.161111	120	612	199	0	 1.402	 0.690	 0.760	 0.98	 1.00	 5.17	 0.87	 0.87	 0.88	 1.23	607.00	618.00	194.00	204.00	 1.23	 1.23	   96	      1	  12045
76	0	007	6121103500	0	1529224	2016	12	11	03	52	 0	0.161111	121	445	234	0	 1.432	 0.693	 0.780	 1.00	 1.00	143.79	 0.91	 0.85	 0.88	 1.25	440.00	450.00	230.00	240.00	 1.25	 1.25	   86	      1	  12046
77	0	007	6121103500	0	1529404	2016	12	11	03	52	 0	0.161111	122	277	268	0	 1.428	 0.570	 0.640	 0.90	 1.00	154.66	 1.15	 0.55	 0.75	 1.28	272.00	282.00	264.00	274.00	 1.28	 1.28	   80	      1	  12047
78	0	007	6121103500	0	1529572	2016	12	11	03	52	 0	0.161111	123	107	303	0	 1.477	 0.586	 0.680	 0.93	 1.10	158.90	 1.20	 0.57	 0.77	 1.32	102.00	114.00	298.00	308.00	 1.32	 1.32	   77	      1	  12048
79	0	007	6121103500	0	1539032	2016	12	11	03	52	 0	0.161111	354	278	55	0	 0.938	 0.353	 0.260	 0.58	 0.50	49.67	 0.78	 0.33	 0.47	 0.85	275.00	281.00	 52.00	 60.00	 0.85	 0.85	  112	      1	  12279
80	0	007	6121103500	0	1539032	2016	12	11	03	52	 0	0.161111	354	524	220	0	 1.018	 0.375	 0.300	 0.62	 0.60	140.77	 0.85	 0.35	 0.50	 0.92	520.00	528.00	218.00	224.00	 0.92	 0.92	  127	      1	  12279
81	0	007	6121103500	0	1539172	2016	12	11	03	52	 0	0.161111	355	102	48	0	 0.965	 0.449	 0.340	 0.66	 0.70	32.69	 0.69	 0.50	 0.58	 0.85	 99.00	106.00	 46.00	 52.00	 0.85	 0.85	   97	      1	  12280
82	0	007	6121103500	0	1539172	2016	12	11	03	52	 0	0.161111	355	347	197	0	 0.860	 0.266	 0.180	 0.48	 0.60	158.72	 0.77	 0.24	 0.36	 0.80	344.00	351.00	196.00	200.00	 0.80	 0.80	  136	      1	  12280
83	0	007	6121103500	0	1540408	2016	12	11	03	52	 0	0.161111	380	191	74	0	 1.006	 0.405	 0.320	 0.64	 0.70	148.78	 0.81	 0.40	 0.53	 0.90	188.00	195.00	 70.00	 78.00	 0.90	 0.90	  116	      1	  12305
84	1	007	6121103500	0	-1	2016	12	11	03	52	 0	0.161111	 380	   0	   0	0	0	0	0	0	0	0	0	0	0	0	0	0	0	0	0	0	0	0	0
85	0	007	6121103500	0	1548800	2016	12	11	03	52	 1	0.161123	202	425	33	0	 0.881	 0.376	 0.260	 0.58	 0.50	131.07	 0.68	 0.38	 0.49	 0.78	423.00	429.00	 30.00	 36.00	 0.78	 0.78	  129	      1	  12507
86	0	007	6121103500	0	1548800	2016	12	11	03	52	 1	0.161123	202	589	454	0	 0.592	 0.215	 0.100	 0.36	 0.50	180.00	 0.50	 0.20	 0.29	 0.54	587.00	592.00	454.00	456.00	 0.54	 0.54	  160	      1	  12507
87	0	007	6121103500	0	1548912	2016	12	11	03	52	 1	0.161123	203	248	19	0	 1.003	 0.355	 0.280	 0.60	 0.50	141.10	 0.85	 0.33	 0.47	 0.92	245.00	253.00	 16.00	 22.00	 0.92	 0.92	  131	      1	  12508
88	0	007	6121103500	0	1548912	2016	12	11	03	52	 1	0.161123	203	413	438	0	 0.410	 0.186	 0.060	 0.28	 0.30	180.00	 0.30	 0.20	 0.24	 0.36	412.00	415.00	438.00	440.00	 0.36	 0.36	  164	      1	  12508
89	0	007	6121103500	0	1551680	2016	12	11	03	52	 1	0.161123	269	524	207	0	 1.256	 0.547	 0.540	 0.83	 0.90	168.95	 0.96	 0.56	 0.71	 1.11	520.00	529.00	204.00	212.00	 1.11	 1.11	  111	      1	  12574
90	0	007	6121103500	0	1551816	2016	12	11	03	52	 1	0.161123	270	372	186	0	 1.387	 0.532	 0.580	 0.86	 1.00	137.55	 1.14	 0.51	 0.70	 1.25	367.00	377.00	182.00	192.00	 1.25	 1.25	  111	      1	  12575
91	0	007	6121103500	0	1551968	2016	12	11	03	52	 1	0.161123	271	218	166	0	 1.690	 0.497	 0.660	 0.92	 1.10	88.29	 1.52	 0.43	 0.67	 1.58	212.00	223.00	160.00	172.00	 1.58	 1.58	  103	      1	  12576
92	0	007	6121103500	0	1552140	2016	12	11	03	52	 1	0.161123	272	62	146	0	 1.852	 0.399	 0.580	 0.86	 1.00	61.89	 1.78	 0.33	 0.55	 1.81	 56.00	 66.00	138.00	152.00	 1.81	 1.81	  107	      1	  12577
93	1	007	6121103500	0	-1	2016	12	11	03	52	 1	0.161123	 380	   0	   0	0	0	0	0	0	0	0	0	0	0	0	0	0	0	0	0	0	0	0	0
94	0	007	6121103500	0	1574828	2016	12	11	03	52	 3	0.161146	69	508	221	0	 1.101	 0.347	 0.300	 0.62	 0.80	158.18	 0.97	 0.31	 0.47	 1.02	504.00	513.00	218.00	224.00	 1.02	 1.02	  119	      1	  13134
95	0	007	6121103500	0	1580208	2016	12	11	03	52	 3	0.161146	190	116	378	0	 1.036	 0.418	 0.340	 0.66	 0.70	147.22	 0.83	 0.41	 0.55	 0.93	112.00	120.00	376.00	382.00	 0.93	 0.93	  130	      1	  13255
96	0	007	6121103500	0	1581992	2016	12	11	03	52	 3	0.161146	232	305	441	0	 1.457	 0.262	 0.300	 0.62	 0.40	130.47	 1.44	 0.21	 0.36	 1.45	300.00	310.00	434.00	446.00	 1.45	 1.45	  118	      1	  13297
97	1	007	6121103500	0	-1	2016	12	11	03	52	 3	0.161146	 380	   0	   0	0	0	0	0	0	0	0	0	0	0	0	0	0	0	0	0	0	0	0	0
98	0	007	6121103500	0	1591464	2016	12	11	03	52	 4	0.161157	75	85	341	0	 1.190	 0.321	 0.300	 0.62	 0.50	37.97	 1.10	 0.27	 0.44	 1.13	 81.00	 90.00	338.00	346.00	 1.13	 1.13	  106	      1	  13520
99	0	007	6121103500	0	1593472	2016	12	11	03	52	 4	0.161157	120	223	394	0	 0.921	 0.415	 0.300	 0.62	 0.70	31.87	 0.68	 0.44	 0.53	 0.81	219.00	226.00	392.00	398.00	 0.81	 0.81	  123	      1	  13565
100	0	007	6121103500	0	1595536	2016	12	11	03	52	 4	0.161157	167	366	397	0	 1.234	 0.454	 0.440	 0.75	 0.80	64.97	 1.04	 0.42	 0.60	 1.12	363.00	371.00	392.00	402.00	 1.12	 1.12	  114	      1	  13612
101	0	007	6121103500	0	1595664	2016	12	11	03	52	 4	0.161157	168	160	378	0	 1.113	 0.480	 0.420	 0.73	 0.80	44.90	 0.86	 0.49	 0.62	 0.99	156.00	164.00	374.00	382.00	 0.99	 0.99	  106	      1	  13613
102	1	007	6121103500	0	-1	2016	12	11	03	52	 4	0.161157	 380	   0	   0	0	0	0	0	0	0	0	0	0	0	0	0	0	0	0	0	0	0	0	0
103	0	007	6121103500	0	1619732	2016	12	11	03	52	 5	0.161169	359	530	288	0	 2.031	 0.614	 0.980	 1.12	 1.20	126.31	 1.82	 0.54	 0.83	 1.90	523.00	536.00	282.00	296.00	 1.90	 1.90	   89	      1	  14184
104	0	007	6121103500	0	1619924	2016	12	11	03	52	 5	0.161169	360	319	258	0	 2.054	 0.607	 0.980	 1.12	 1.40	142.35	 1.85	 0.53	 0.82	 1.92	310.00	325.00	254.00	266.00	 1.92	 1.92	   95	      1	  14185
105	0	007	6121103500	0	1620124	2016	12	11	03	52	 5	0.161169	361	106	227	0	 1.934	 0.553	 0.840	 1.03	 1.40	149.30	 1.76	 0.48	 0.75	 1.82	 97.00	112.00	224.00	234.00	 1.82	 1.82	  102	      1	  14186
106	1	007	6121103500	0	-1	2016	12	11	03	52	 5	0.161169	 380	   0	   0	0	0	0	0	0	0	0	0	0	0	0	0	0	0	0	0	0	0	0	0
107	0	007	6121103500	0	1633172	2016	12	11	03	52	 6	0.161181	291	315	75	0	 1.309	 0.583	 0.600	 0.87	 0.70	67.72	 0.98	 0.61	 0.75	 1.16	312.00	320.00	 70.00	 82.00	 1.16	 1.16	  138	      1	  14496
108	0	007	6121103500	0	1633172	2016	12	11	03	52	 6	0.161181	291	238	440	0	 0.500	 0.204	 0.080	 0.32	 0.40	180.00	 0.40	 0.20	 0.27	 0.45	236.00	240.00	440.00	442.00	 0.45	 0.45	  139	      1	  14496
109	0	007	6121103500	0	1633348	2016	12	11	03	52	 6	0.161181	292	82	21	0	 1.108	 0.437	 0.380	 0.70	 0.50	62.60	 0.90	 0.42	 0.57	 1.00	 79.00	 86.00	 16.00	 26.00	 1.00	 1.00	  152	      1	  14497
110	0	007	6121103500	0	1633348	2016	12	11	03	52	 6	0.161181	292	26	376	0	 0.572	 0.223	 0.100	 0.36	 0.30	48.18	 0.47	 0.21	 0.29	 0.51	 24.00	 28.00	374.00	378.00	 0.51	 0.51	  155	      1	  14497
111	1	007	6121103500	0	-1	2016	12	11	03	52	 6	0.161181	 380	   0	   0	0	0	0	0	0	0	0	0	0	0	0	0	0	0	0	0	0	0	0	0
112	0	007	6121103500	0	1641868	2016	12	11	03	52	 7	0.161192	118	512	299	0	 1.262	 0.605	 0.600	 0.87	 0.90	142.45	 0.84	 0.71	 0.77	 1.10	507.00	517.00	296.00	304.00	 1.10	 1.10	   95	      1	  14703
113	0	007	6121103500	0	1642016	2016	12	11	03	52	 7	0.161192	119	299	272	0	 1.284	 0.535	 0.540	 0.83	 0.80	146.98	 1.01	 0.53	 0.70	 1.14	295.00	304.00	268.00	276.00	 1.14	 1.14	  101	      1	  14704
114	0	007	6121103500	0	1642160	2016	12	11	03	52	 7	0.161192	120	84	244	0	 1.284	 0.535	 0.540	 0.83	 0.80	146.89	 1.01	 0.53	 0.70	 1.14	 80.00	 89.00	240.00	248.00	 1.14	 1.14	   98	      1	  14705
115	1	007	6121103500	0	-1	2016	12	11	03	52	 7	0.161192	 379	   0	   0	0	0	0	0	0	0	0	0	0	0	0	0	0	0	0	0	0	0	0	0
116	0	007	6121103500	0	1654816	2016	12	11	03	52	 8	0.161204	48	485	449	0	 1.237	 0.453	 0.440	 0.75	 0.70	93.49	 1.04	 0.42	 0.60	 1.12	483.00	490.00	444.00	454.00	 1.12	 1.12	  108	      1	  15012
117	0	007	6121103500	0	1654936	2016	12	11	03	52	 8	0.161204	49	308	400	0	 1.270	 0.421	 0.420	 0.73	 0.90	89.89	 1.11	 0.38	 0.57	 1.17	304.00	313.00	396.00	404.00	 1.17	 1.17	  109	      1	  15013
118	0	007	6121103500	0	1655060	2016	12	11	03	52	 8	0.161204	50	127	350	0	 1.237	 0.391	 0.380	 0.70	 0.80	61.16	 1.09	 0.35	 0.53	 1.15	123.00	131.00	346.00	354.00	 1.15	 1.15	  112	      1	  15014
119	1	007	6121103500	0	-1	2016	12	11	03	52	 8	0.161204	 380	   0	   0	0	0	0	0	0	0	0	0	0	0	0	0	0	0	0	0	0	0	0	0
120	0	007	6121103500	0	1682700	2016	12	11	03	52	 9	0.161215	351	600	181	0	 1.189	 0.407	 0.380	 0.70	 0.70	81.12	 1.03	 0.37	 0.54	 1.09	596.00	603.00	176.00	186.00	 1.09	 1.09	  141	      1	  15695
121	0	007	6121103500	0	1682816	2016	12	11	03	52	 9	0.161215	352	409	156	0	 1.412	 0.541	 0.600	 0.87	 0.70	97.49	 1.16	 0.52	 0.71	 1.27	405.00	413.00	150.00	162.00	 1.27	 1.27	  133	      1	  15696
122	0	007	6121103500	0	1682964	2016	12	11	03	52	 9	0.161215	353	215	134	0	 1.003	 0.381	 0.300	 0.62	 0.60	128.93	 0.83	 0.36	 0.50	 0.91	212.00	219.00	130.00	138.00	 0.91	 0.91	  141	      1	  15697
123	1	007	6121103500	0	-1	2016	12	11	03	52	 9	0.161215	 380	   0	   0	0	0	0	0	0	0	0	0	0	0	0	0	0	0	0	0	0	0	0	0
124	0	007	6121103500	0	1687632	2016	12	11	03	52	10	0.161227	86	380	293	0	 1.723	 0.266	 0.360	 0.68	 0.50	105.32	 1.73	 0.21	 0.37	 1.74	378.00	384.00	284.00	300.00	 1.74	 1.74	  135	      1	  15810
125	1	007	6121103500	0	-1	2016	12	11	03	52	10	0.161227	 380	   0	   0	0	0	0	0	0	0	0	0	0	0	0	0	0	0	0	0	0	0	0	0
126	0	007	6121103500	0	1806952	2016	12	11	03	52	17	0.161308	341	513	333	0	 0.954	 0.267	 0.200	 0.50	 0.70	163.27	 0.87	 0.23	 0.36	 0.90	509.00	517.00	332.00	336.00	 0.90	 0.90	  144	      1	  18724
127	0	007	6121103500	0	1807068	2016	12	11	03	52	17	0.161308	342	307	164	0	 0.765	 0.333	 0.200	 0.50	 0.50	129.83	 0.59	 0.34	 0.43	 0.68	305.00	310.00	162.00	168.00	 0.68	 0.68	  127	      1	  18725
128	0	007	6121103500	0	1807068	2016	12	11	03	52	17	0.161308	342	298	339	0	 0.832	 0.245	 0.160	 0.45	 0.60	161.27	 0.75	 0.21	 0.33	 0.78	295.00	302.00	338.00	342.00	 0.78	 0.78	  155	      1	  18725
129	1	007	6121103500	0	-1	2016	12	11	03	52	17	0.161308	 380	   0	   0	0	0	0	0	0	0	0	0	0	0	0	0	0	0	0	0	0	0	0	0
130	0	007	6121103500	0	1833540	2016	12	11	03	52	19	0.161331	219	572	169	0	 1.187	 0.343	 0.320	 0.64	 0.80	29.56	 1.07	 0.30	 0.47	 1.12	567.00	577.00	166.00	172.00	 1.12	 1.12	  137	      1	  19362
131	0	007	6121103500	0	1833644	2016	12	11	03	52	19	0.161331	220	337	162	0	 1.257	 0.365	 0.360	 0.68	 0.60	56.48	 1.14	 0.32	 0.50	 1.18	333.00	341.00	158.00	168.00	 1.18	 1.18	  140	      1	  19363
132	0	007	6121103500	0	1834592	2016	12	11	03	52	19	0.161331	241	552	230	0	 1.409	 0.506	 0.560	 0.84	 1.20	 7.27	 1.19	 0.47	 0.67	 1.28	546.00	559.00	228.00	234.00	 1.28	 1.28	  114	      1	  19384
133	0	007	6121103500	0	1834720	2016	12	11	03	52	19	0.161331	242	302	241	0	 1.696	 0.420	 0.560	 0.84	 1.50	10.03	 1.59	 0.35	 0.58	 1.63	295.00	310.00	238.00	244.00	 1.63	 1.63	  119	      1	  19385
134	0	007	6121103500	0	1834872	2016	12	11	03	52	19	0.161331	243	48	252	0	 1.653	 0.370	 0.480	 0.78	 1.00	19.59	 1.58	 0.30	 0.51	 1.61	 42.00	 56.00	248.00	256.00	 1.61	 1.61	  134	      1	  19386
135	1	007	6121103500	0	-1	2016	12	11	03	52	19	0.161331	 380	   0	   0	0	0	0	0	0	0	0	0	0	0	0	0	0	0	0	0	0	0	0	0
136	0	007	6121103500	0	1889280	2016	12	11	03	52	23	0.161377	55	579	389	0	 1.579	 0.371	 0.460	 0.77	 0.90	36.65	 1.49	 0.31	 0.51	 1.52	574.00	585.00	384.00	394.00	 1.52	 1.52	  141	      1	  20718
137	0	007	6121103500	0	1889400	2016	12	11	03	52	23	0.161377	56	386	359	0	 1.535	 0.415	 0.500	 0.80	 0.90	35.30	 1.41	 0.35	 0.57	 1.46	381.00	392.00	354.00	364.00	 1.46	 1.46	  131	      1	  20719
138	0	007	6121103500	0	1889524	2016	12	11	03	52	23	0.161377	57	193	328	0	 1.798	 0.382	 0.540	 0.83	 0.80	53.83	 1.73	 0.31	 0.53	 1.76	187.00	198.00	320.00	334.00	 1.76	 1.76	  123	      1	  20720
139	0	007	6121103500	0	1891472	2016	12	11	03	52	23	0.161377	100	609	416	0	 1.252	 0.427	 0.420	 0.73	 0.90	27.28	 1.08	 0.39	 0.57	 1.15	604.00	614.00	412.00	420.00	 1.15	 1.15	  101	      1	  20763
140	0	007	6121103500	0	1891596	2016	12	11	03	52	23	0.161377	101	430	395	0	 1.112	 0.481	 0.420	 0.73	 0.90	17.98	 0.85	 0.49	 0.62	 0.98	426.00	435.00	392.00	398.00	 0.98	 0.98	  103	      1	  20764
141	0	007	6121103500	0	1891720	2016	12	11	03	52	23	0.161377	102	250	374	0	 1.196	 0.447	 0.420	 0.73	 1.00	17.21	 1.00	 0.42	 0.59	 1.08	245.00	255.00	372.00	378.00	 1.08	 1.08	  100	      1	  20765
142	0	007	6121103500	0	1891844	2016	12	11	03	52	23	0.161377	103	68	353	0	 1.370	 0.521	 0.560	 0.84	 1.10	19.94	 1.13	 0.49	 0.69	 1.24	 62.00	 73.00	350.00	358.00	 1.24	 1.24	   94	      1	  20766
143	1	007	6121103500	0	-1	2016	12	11	03	52	23	0.161377	 380	   0	   0	0	0	0	0	0	0	0	0	0	0	0	0	0	0	0	0	0	0	0	0
144	0	007	6121103500	0	1932632	2016	12	11	03	52	25	0.161400	330	135	419	0	 1.203	 0.317	 0.300	 0.62	 0.60	146.14	 1.11	 0.27	 0.43	 1.14	131.00	141.00	416.00	422.00	 1.14	 1.14	  119	      1	  21752
145	1	007	6121103500	0	-1	2016	12	11	03	52	25	0.161400	 380	   0	   0	0	0	0	0	0	0	0	0	0	0	0	0	0	0	0	0	0	0	0	0
146	0	007	6121103500	0	1936596	2016	12	11	03	52	26	0.161412	46	480	284	0	 1.062	 0.432	 0.360	 0.68	 0.80	39.34	 0.85	 0.42	 0.57	 0.95	476.00	484.00	280.00	288.00	 0.95	 0.95	   95	      1	  21848
147	0	007	6121103500	0	1936708	2016	12	11	03	52	26	0.161412	47	275	264	0	 0.922	 0.442	 0.320	 0.64	 0.60	64.55	 0.62	 0.52	 0.56	 0.81	272.00	279.00	260.00	268.00	 0.81	 0.81	  112	      1	  21849
148	1	007	6121103500	0	-1	2016	12	11	03	52	26	0.161412	 380	   0	   0	0	0	0	0	0	0	0	0	0	0	0	0	0	0	0	0	0	0	0	0
149	0	007	6121103500	0	2010388	2016	12	11	03	52	30	0.161458	333	310	266	0	 1.515	 0.420	 0.500	 0.80	 0.60	93.91	 1.39	 0.36	 0.57	 1.43	307.00	313.00	260.00	274.00	 1.43	 1.43	  123	      1	  23655
150	0	007	6121103500	0	2010520	2016	12	11	03	52	30	0.161458	334	21	245	0	 1.319	 0.444	 0.460	 0.77	 0.50	87.90	 1.14	 0.40	 0.60	 1.21	 19.00	 24.00	240.00	252.00	 1.21	 1.21	  128	      1	  23656
151	1	007	6121103500	0	-1	2016	12	11	03	52	30	0.161458	 380	   0	   0	0	0	0	0	0	0	0	0	0	0	0	0	0	0	0	0	0	0	0	0
152	0	007	6121103500	0	2049560	2016	12	11	03	52	33	0.161493	155	519	313	0	 1.098	 0.418	 0.360	 0.68	 0.80	146.71	 0.91	 0.40	 0.55	 0.99	515.00	523.00	310.00	318.00	 0.99	 0.99	   97	      1	  24617
153	0	007	6121103500	0	2049672	2016	12	11	03	52	33	0.161493	156	317	365	0	 1.072	 0.427	 0.360	 0.68	 0.70	135.07	 0.87	 0.42	 0.56	 0.96	314.00	321.00	362.00	370.00	 0.96	 0.96	  102	      1	  24618
154	0	007	6121103500	0	2049784	2016	12	11	03	52	33	0.161493	157	115	417	0	 1.084	 0.540	 0.460	 0.77	 0.70	116.62	 0.67	 0.67	 0.68	 0.95	112.00	119.00	414.00	422.00	 0.95	 0.95	   94	      1	  24619
155	1	007	6121103500	0	-1	2016	12	11	03	52	33	0.161493	 380	   0	   0	0	0	0	0	0	0	0	0	0	0	0	0	0	0	0	0	0	0	0	0
156	0	007	6121103500	0	2108556	2016	12	11	03	52	37	0.161539	88	185	282	0	 1.267	 0.442	 0.440	 0.75	 0.60	69.16	 1.09	 0.41	 0.59	 1.16	182.00	189.00	276.00	286.00	 1.16	 1.16	  130	      1	  26070
157	1	007	6121103500	0	-1	2016	12	11	03	52	37	0.161539	 379	   0	   0	0	0	0	0	0	0	0	0	0	0	0	0	0	0	0	0	0	0	0	0
158	0	007	6121103500	0	2174640	2016	12	11	03	52	42	0.161597	209	494	98	0	 0.988	 0.438	 0.340	 0.66	 0.60	64.91	 0.74	 0.46	 0.57	 0.87	491.00	498.00	 94.00	102.00	 0.87	 0.87	  117	      1	  28089
159	0	007	6121103500	0	2174748	2016	12	11	03	52	42	0.161597	210	276	54	0	 1.018	 0.450	 0.360	 0.68	 0.60	56.65	 0.77	 0.47	 0.58	 0.90	273.00	280.00	 50.00	 58.00	 0.90	 0.90	  112	      1	  28090
160	1	007	6121103500	0	-1	2016	12	11	03	52	42	0.161597	 380	   0	   0	0	0	0	0	0	0	0	0	0	0	0	0	0	0	0	0	0	0	0	0
161	2	007	6121103500	0	-1	2016	12	11	03	52	59	0.161794	22793	   0	   0	0	0	0	0	0	0	0	0	0	0	0	0	0	0	0	0	0	0	0	0
162	0	007	6121103500	0	2404868	2016	12	11	03	53	15	0.161979	216	48	248	0	 0.410	 0.186	 0.060	 0.28	 0.30	180.00	 0.30	 0.20	 0.24	 0.36	 47.00	 50.00	248.00	250.00	 0.36	 0.36	  150	      2	   7865
163	0	007	6121103500	0	2404868	2016	12	11	03	53	15	0.161979	216	286	409	0	 0.912	 0.363	 0.260	 0.58	 0.70	14.08	 0.74	 0.35	 0.48	 0.82	283.00	290.00	406.00	412.00	 0.82	 0.82	  141	      2	   7865
164	1	007	6121103500	0	-1	2016	12	11	03	53	15	0.161979	 380	   0	   0	0	0	0	0	0	0	0	0	0	0	0	0	0	0	0	0	0	0	0	0
165	0	007	6121103500	0	2509472	2016	12	11	03	53	32	0.162176	145	352	106	0	 1.030	 0.494	 0.400	 0.71	 0.80	166.18	 0.69	 0.58	 0.63	 0.90	348.00	356.00	104.00	110.00	 0.90	 0.90	  113	      2	  14251
166	0	007	6121103500	0	2509592	2016	12	11	03	53	32	0.162176	146	111	112	0	 1.211	 0.442	 0.420	 0.73	 0.70	144.65	 1.02	 0.41	 0.59	 1.10	107.00	116.00	108.00	116.00	 1.10	 1.10	  114	      2	  14252
167	1	007	6121103500	0	-1	2016	12	11	03	53	32	0.162176	 380	   0	   0	0	0	0	0	0	0	0	0	0	0	0	0	0	0	0	0	0	0	0	0
168	0	007	6121103500	0	2562928	2016	12	11	03	53	53	0.162419	315	531	249	0	 0.968	 0.237	 0.180	 0.48	 0.30	121.74	 0.91	 0.20	 0.33	 0.93	528.00	534.00	246.00	254.00	 0.93	 0.93	  147	      2	  22399
169	0	007	6121103500	0	2562928	2016	12	11	03	53	53	0.162419	315	541	263	0	 0.897	 0.369	 0.260	 0.58	 0.60	129.38	 0.71	 0.37	 0.48	 0.80	539.00	545.00	260.00	266.00	 0.80	 0.80	  143	      2	  22399
170	0	007	6121103500	0	2563056	2016	12	11	03	53	53	0.162419	316	339	253	0	 0.928	 0.192	 0.140	 0.42	 0.20	123.79	 0.90	 0.16	 0.27	 0.91	336.00	342.00	250.00	258.00	 0.91	 0.91	  147	      2	  22400
171	0	007	6121103500	0	2563056	2016	12	11	03	53	53	0.162419	316	349	266	0	 0.799	 0.351	 0.220	 0.53	 0.40	103.05	 0.61	 0.36	 0.45	 0.71	347.00	352.00	264.00	270.00	 0.71	 0.71	  147	      2	  22400
172	1	007	6121103500	0	-1	2016	12	11	03	53	53	0.162419	 380	   0	   0	0	0	0	0	0	0	0	0	0	0	0	0	0	0	0	0	0	0	0	0
173	2	007	6121103500	0	-1	2016	12	11	03	53	59	0.162488	22793	   0	   0	0	0	0	0	0	0	0	0	0	0	0	0	0	0	0	0	0	0	0	0
174	0	007	6121103500	0	2679852	2016	12	11	03	54	30	0.162847	147	75	293	0	 1.162	 0.394	 0.360	 0.68	 0.70	28.39	 1.00	 0.36	 0.53	 1.07	 71.00	 81.00	290.00	296.00	 1.07	 1.07	  122	      3	   3520
175	1	007	6121103500	0	-1	2016	12	11	03	54	30	0.162847	 380	   0	   0	0	0	0	0	0	0	0	0	0	0	0	0	0	0	0	0	0	0	0	0
176	0	007	6121103500	0	2777428	2016	12	11	03	54	47	0.163044	281	477	242	0	 1.337	 0.438	 0.460	 0.77	 1.10	14.49	 1.17	 0.39	 0.59	 1.23	471.00	483.00	240.00	246.00	 1.23	 1.23	  109	      3	  10113
177	0	007	6121103500	0	2777560	2016	12	11	03	54	47	0.163044	282	293	251	0	 1.430	 0.445	 0.500	 0.80	 1.20	11.81	 1.27	 0.39	 0.60	 1.33	286.00	299.00	248.00	254.00	 1.33	 1.33	  109	      3	  10114
178	0	007	6121103500	0	2777700	2016	12	11	03	54	47	0.163044	283	107	260	0	 1.600	 0.494	 0.620	 0.89	 1.30	11.54	 1.42	 0.44	 0.67	 1.49	101.00	114.00	256.00	264.00	 1.49	 1.49	  103	      3	  10115
179	1	007	6121103500	0	-1	2016	12	11	03	54	47	0.163044	 379	   0	   0	0	0	0	0	0	0	0	0	0	0	0	0	0	0	0	0	0	0	0	0
180	2	007	6121103500	0	-1	2016	12	11	03	54	59	0.163183	22793	   0	   0	0	0	0	0	0	0	0	0	0	0	0	0	0	0	0	0	0	0	0	0
181	2	007	6121103500	0	-1	2016	12	11	03	55	59	0.163877	22793	   0	   0	0	0	0	0	0	0	0	0	0	0	0	0	0	0	0	0	0	0	0	0
182	0	007	6121103500	0	2957312	2016	12	11	03	56	26	0.164190	104	435	353	0	 1.852	 0.399	 0.580	 0.86	 1.00	84.48	 1.78	 0.33	 0.55	 1.81	430.00	440.00	344.00	358.00	 1.81	 1.81	  104	      4	  14776
183	0	007	6121103500	0	2957464	2016	12	11	03	56	26	0.164190	105	245	353	0	 1.931	 0.409	 0.620	 0.89	 0.80	89.88	 1.86	 0.33	 0.57	 1.89	240.00	250.00	344.00	360.00	 1.89	 1.89	  105	      4	  14777
184	0	007	6121103500	0	2957620	2016	12	11	03	56	26	0.164190	106	54	353	0	 1.891	 0.458	 0.680	 0.93	 0.80	83.01	 1.78	 0.38	 0.63	 1.82	 49.00	 58.00	344.00	360.00	 1.82	 1.82	  101	      4	  14778
185	1	007	6121103500	0	-1	2016	12	11	03	56	26	0.164190	 380	   0	   0	0	0	0	0	0	0	0	0	0	0	0	0	0	0	0	0	0	0	0	0
186	0	007	6121103500	0	2969680	2016	12	11	03	56	30	0.164236	18	19	58	0	 0.972	 0.393	 0.300	 0.62	 0.60	134.78	 0.78	 0.39	 0.52	 0.87	 16.00	 23.00	 56.00	 62.00	 0.87	 0.87	  135	      4	  16209
187	1	007	6121103500	0	-1	2016	12	11	03	56	30	0.164236	 380	   0	   0	0	0	0	0	0	0	0	0	0	0	0	0	0	0	0	0	0	0	0	0
188	2	007	6121103500	0	-1	2016	12	11	03	56	59	0.164572	22791	   0	   0	0	0	0	0	0	0	0	0	0	0	0	0	0	0	0	0	0	0	0	0
189	0	007	6121103500	0	3096212	2016	12	11	03	57	45	0.165104	52	510	277	0	 1.355	 0.545	 0.580	 0.86	 1.00	 4.58	 1.09	 0.53	 0.72	 1.21	505.00	515.00	274.00	282.00	 1.21	 1.21	   87	      5	  11967
190	0	007	6121103500	0	3096368	2016	12	11	03	57	45	0.165104	53	341	296	0	 1.248	 0.551	 0.540	 0.83	 1.00	16.93	 0.94	 0.57	 0.71	 1.10	336.00	346.00	292.00	300.00	 1.10	 1.10	   93	      5	  11968
191	0	007	6121103500	0	3096516	2016	12	11	03	57	45	0.165104	54	171	315	0	 1.099	 0.510	 0.440	 0.75	 0.90	15.05	 0.78	 0.56	 0.65	 0.96	167.00	176.00	312.00	318.00	 0.96	 0.96	   97	      5	  11969
192	1	007	6121103500	0	-1	2016	12	11	03	57	45	0.165104	 380	   0	   0	0	0	0	0	0	0	0	0	0	0	0	0	0	0	0	0	0	0	0	0
193	0	007	6121103500	0	3131172	2016	12	11	03	57	53	0.165197	148	431	270	0	 0.887	 0.459	 0.320	 0.64	 0.70	32.40	 0.55	 0.55	 0.58	 0.78	428.00	435.00	268.00	274.00	 0.78	 0.78	  134	      5	  15102
194	0	007	6121103500	0	3131276	2016	12	11	03	57	53	0.165197	149	225	288	0	 0.882	 0.462	 0.320	 0.64	 0.60	90.00	 0.55	 0.55	 0.58	 0.78	223.00	229.00	286.00	292.00	 0.78	 0.78	  130	      5	  15103
195	0	007	6121103500	0	3131380	2016	12	11	03	57	53	0.165197	150	19	307	0	 1.092	 0.560	 0.480	 0.78	 0.80	160.23	 0.68	 0.68	 0.70	 0.96	 16.00	 24.00	304.00	312.00	 0.96	 0.96	  119	      5	  15104
196	0	007	6121103500	0	3132836	2016	12	11	03	57	53	0.165197	184	509	270	0	 1.247	 0.388	 0.380	 0.70	 1.00	175.21	 1.11	 0.34	 0.52	 1.16	504.00	514.00	266.00	274.00	 1.16	 1.16	  116	      5	  15138
197	0	007	6121103500	0	3132952	2016	12	11	03	57	53	0.165197	185	339	286	0	 1.050	 0.509	 0.420	 0.73	 0.80	84.36	 0.65	 0.65	 0.65	 0.92	335.00	343.00	282.00	290.00	 0.92	 0.92	  116	      5	  15139
198	0	007	6121103500	0	3133076	2016	12	11	03	57	53	0.165197	186	167	302	0	 0.975	 0.392	 0.300	 0.62	 0.60	100.99	 0.79	 0.38	 0.51	 0.87	164.00	170.00	298.00	306.00	 0.87	 0.87	  128	      5	  15140
199	0	007	6121103500	0	3134336	2016	12	11	03	57	53	0.165197	216	534	391	0	 0.962	 0.424	 0.320	 0.64	 0.70	20.59	 0.73	 0.44	 0.55	 0.85	530.00	538.00	388.00	394.00	 0.85	 0.85	  110	      5	  15170
200	0	007	6121103500	0	3138644	2016	12	11	03	57	53	0.165197	318	595	318	0	 0.990	 0.412	 0.320	 0.64	 0.50	66.79	 0.78	 0.41	 0.54	 0.88	593.00	599.00	314.00	322.00	 0.88	 0.88	  109	      5	  15272
201	0	007	6121103500	0	3138936	2016	12	11	03	57	53	0.165197	321	77	348	0	 1.020	 0.424	 0.340	 0.66	 0.50	67.32	 0.80	 0.42	 0.55	 0.91	 75.00	 81.00	344.00	352.00	 0.91	 0.91	   99	      5	  15275
202	1	007	6121103500	0	-1	2016	12	11	03	57	53	0.165197	 380	   0	   0	0	0	0	0	0	0	0	0	0	0	0	0	0	0	0	0	0	0	0	0
203	0	007	6121103500	0	3143016	2016	12	11	03	57	54	0.165208	41	466	127	0	 1.597	 0.335	 0.420	 0.73	 1.10	21.84	 1.54	 0.27	 0.46	 1.56	460.00	473.00	124.00	132.00	 1.56	 1.56	  138	      5	  15375
204	0	007	6121103500	0	3143136	2016	12	11	03	57	54	0.165208	42	287	137	0	 1.416	 0.378	 0.420	 0.73	 1.00	21.75	 1.31	 0.32	 0.52	 1.34	282.00	293.00	134.00	142.00	 1.34	 1.34	  151	      5	  15376
205	0	007	6121103500	0	3143260	2016	12	11	03	57	54	0.165208	43	107	148	0	 1.600	 0.398	 0.500	 0.80	 1.10	23.55	 1.50	 0.33	 0.55	 1.53	102.00	114.00	144.00	154.00	 1.53	 1.53	  130	      5	  15377
206	1	007	6121103500	0	-1	2016	12	11	03	57	54	0.165208	 379	   0	   0	0	0	0	0	0	0	0	0	0	0	0	0	0	0	0	0	0	0	0	0
207	2	007	6121103500	0	-1	2016	12	11	03	57	59	0.165266	22792	   0	   0	0	0	0	0	0	0	0	0	0	0	0	0	0	0	0	0	0	0	0	0
208	0	007	6121103500	0	3254696	2016	12	11	03	58	 5	0.165336	149	587	200	0	 1.809	 0.760	 1.080	 1.17	 1.20	99.27	 1.42	 0.76	 0.99	 1.61	580.00	592.00	194.00	208.00	 1.61	 1.61	  104	      5	  19662
209	0	007	6121103500	0	3254952	2016	12	11	03	58	 5	0.165336	150	391	224	0	 1.668	 0.763	 1.000	 1.13	 1.00	97.56	 1.21	 0.82	 0.98	 1.47	385.00	395.00	218.00	232.00	 1.47	 1.47	  111	      5	  19663
210	0	007	6121103500	0	3255188	2016	12	11	03	58	 5	0.165336	151	194	249	0	 1.938	 0.762	 1.160	 1.22	 1.00	106.03	 1.58	 0.73	 1.00	 1.74	188.00	200.00	242.00	258.00	 1.74	 1.74	   97	      5	  19664
211	1	007	6121103500	0	-1	2016	12	11	03	58	 5	0.165336	 379	   0	   0	0	0	0	0	0	0	0	0	0	0	0	0	0	0	0	0	0	0	0	0
212	0	007	6121103500	0	3289616	2016	12	11	03	58	 7	0.165359	244	533	266	0	 1.402	 0.345	 0.380	 0.70	 0.80	172.53	 1.31	 0.29	 0.47	 1.35	529.00	537.00	262.00	272.00	 1.35	 1.35	  133	      5	  20516
213	0	007	6121103500	0	3289720	2016	12	11	03	58	 7	0.165359	245	378	266	0	 1.147	 0.377	 0.340	 0.66	 0.70	150.55	 1.00	 0.34	 0.51	 1.06	375.00	382.00	262.00	270.00	 1.06	 1.06	  139	      5	  20517
214	0	007	6121103500	0	3289820	2016	12	11	03	58	 7	0.165359	246	222	266	0	 1.326	 0.346	 0.360	 0.68	 0.70	139.32	 1.23	 0.29	 0.47	 1.26	218.00	225.00	262.00	272.00	 1.26	 1.26	  129	      5	  20518
215	0	007	6121103500	0	3289932	2016	12	11	03	58	 7	0.165359	247	501	179	0	 2.576	 0.554	 1.120	 1.19	 1.00	57.84	 2.47	 0.45	 0.77	 2.51	494.00	509.00	170.00	190.00	 2.51	 2.51	  132	      5	  20519
216	0	007	6121103500	0	3289932	2016	12	11	03	58	 7	0.165359	247	64	266	0	 1.286	 0.436	 0.440	 0.75	 0.70	123.57	 1.11	 0.40	 0.58	 1.18	 60.00	 68.00	262.00	272.00	 1.18	 1.18	  132	      5	  20519
217	0	007	6121103500	0	3290152	2016	12	11	03	58	 7	0.165359	248	335	181	0	 1.576	 0.275	 0.340	 0.66	 0.60	53.31	 1.56	 0.22	 0.38	 1.57	330.00	340.00	176.00	188.00	 1.57	 1.57	  137	      5	  20520
218	0	007	6121103500	0	3290260	2016	12	11	03	58	 7	0.165359	249	169	179	0	 1.305	 0.390	 0.400	 0.71	 0.60	56.32	 1.17	 0.34	 0.53	 1.22	165.00	173.00	174.00	184.00	 1.22	 1.22	  138	      5	  20521
219	1	007	6121103500	0	-1	2016	12	11	03	58	 7	0.165359	 380	   0	   0	0	0	0	0	0	0	0	0	0	0	0	0	0	0	0	0	0	0	0	0
220	0	007	6121103500	0	3306124	2016	12	11	03	58	10	0.165394	259	481	272	0	 0.851	 0.449	 0.300	 0.62	 0.60	117.87	 0.53	 0.53	 0.56	 0.76	479.00	485.00	270.00	276.00	 0.76	 0.76	  156	      5	  21671
221	0	007	6121103500	0	3306224	2016	12	11	03	58	10	0.165394	260	248	277	0	 1.067	 0.573	 0.480	 0.78	 0.70	113.55	 0.67	 0.67	 0.71	 0.95	245.00	252.00	274.00	282.00	 0.95	 0.95	  147	      5	  21672
222	0	007	6121103500	0	3306360	2016	12	11	03	58	10	0.165394	261	13	282	0	 0.894	 0.427	 0.300	 0.62	 0.60	60.19	 0.60	 0.50	 0.55	 0.78	 11.00	 17.00	280.00	286.00	 0.78	 0.78	  153	      5	  21673
223	1	007	6121103500	0	-1	2016	12	11	03	58	10	0.165394	 380	   0	   0	0	0	0	0	0	0	0	0	0	0	0	0	0	0	0	0	0	0	0	0
224	0	007	6121103500	0	3318584	2016	12	11	03	58	11	0.165405	181	431	111	0	 1.114	 0.571	 0.500	 0.80	 1.00	175.29	 0.70	 0.70	 0.72	 0.98	427.00	437.00	108.00	114.00	 0.98	 0.98	  149	      5	  21973
225	0	007	6121103500	0	3318812	2016	12	11	03	58	11	0.165405	183	21	92	0	 0.962	 0.503	 0.380	 0.70	 0.70	179.99	 0.60	 0.60	 0.63	 0.85	 18.00	 25.00	 90.00	 96.00	 0.85	 0.85	  156	      5	  21975
226	1	007	6121103500	0	-1	2016	12	11	03	58	11	0.165405	 380	   0	   0	0	0	0	0	0	0	0	0	0	0	0	0	0	0	0	0	0	0	0	0
227	0	007	6121103500	0	3335348	2016	12	11	03	58	12	0.165417	209	80	315	0	 0.986	 0.413	 0.320	 0.64	 0.60	131.49	 0.77	 0.41	 0.54	 0.88	 77.00	 84.00	312.00	318.00	 0.88	 0.88	  124	      5	  22381
228	1	007	6121103500	0	-1	2016	12	11	03	58	12	0.165417	 380	   0	   0	0	0	0	0	0	0	0	0	0	0	0	0	0	0	0	0	0	0	0	0
229	0	007	6121103500	0	3383256	2016	12	11	03	58	22	0.165532	247	264	406	0	 1.084	 0.540	 0.460	 0.77	 0.90	12.63	 0.67	 0.67	 0.68	 0.95	260.00	269.00	404.00	410.00	 0.95	 0.95	  126	      5	  26218
230	0	007	6121103500	0	3383388	2016	12	11	03	58	22	0.165532	248	140	402	0	 0.987	 0.542	 0.420	 0.73	 0.80	11.52	 0.63	 0.63	 0.67	 0.88	136.00	144.00	400.00	406.00	 0.88	 0.88	  125	      5	  26219
231	1	007	6121103500	0	-1	2016	12	11	03	58	22	0.165532	 380	   0	   0	0	0	0	0	0	0	0	0	0	0	0	0	0	0	0	0	0	0	0	0
232	0	007	6121103500	0	3419104	2016	12	11	03	58	27	0.165590	372	608	213	0	 1.541	 0.430	 0.520	 0.81	 1.00	19.16	 1.41	 0.37	 0.59	 1.46	601.00	614.00	210.00	216.00	 1.46	 1.46	  137	      5	  28242
233	0	007	6121103500	0	3419208	2016	12	11	03	58	27	0.165590	373	470	203	0	 1.799	 0.311	 0.440	 0.75	 1.00	14.54	 1.78	 0.25	 0.43	 1.80	464.00	477.00	200.00	208.00	 1.80	 1.80	  133	      5	  28243
234	0	007	6121103500	0	3419312	2016	12	11	03	58	27	0.165590	374	332	194	0	 1.623	 0.424	 0.540	 0.83	 0.90	21.89	 1.50	 0.36	 0.58	 1.55	325.00	338.00	190.00	198.00	 1.55	 1.55	  124	      5	  28244
235	0	007	6121103500	0	3419420	2016	12	11	03	58	27	0.165590	375	192	185	0	 1.785	 0.471	 0.660	 0.92	 1.00	25.50	 1.65	 0.40	 0.64	 1.70	185.00	199.00	180.00	190.00	 1.70	 1.70	  131	      5	  28245
236	0	007	6121103500	0	3419572	2016	12	11	03	58	27	0.165590	376	53	175	0	 1.277	 0.339	 0.340	 0.66	 0.80	28.83	 1.18	 0.29	 0.46	 1.21	 49.00	 58.00	170.00	178.00	 1.21	 1.21	  127	      5	  28246
237	1	007	6121103500	0	-1	2016	12	11	03	58	27	0.165590	 380	   0	   0	0	0	0	0	0	0	0	0	0	0	0	0	0	0	0	0	0	0	0	0
238	0	007	6121103500	0	3511080	2016	12	11	03	58	34	0.165671	370	53	134	0	 1.061	 0.360	 0.300	 0.62	 0.60	47.43	 0.92	 0.33	 0.48	 0.97	 50.00	 57.00	130.00	138.00	 0.97	 0.97	  152	      5	  30900
239	1	007	6121103500	0	-1	2016	12	11	03	58	34	0.165671	 379	   0	   0	0	0	0	0	0	0	0	0	0	0	0	0	0	0	0	0	0	0	0	0
240	0	007	6121103500	0	3574460	2016	12	11	03	58	46	0.165810	39	550	292	0	 1.803	 0.395	 0.560	 0.84	 0.90	63.02	 1.73	 0.32	 0.55	 1.76	544.00	554.00	284.00	298.00	 1.76	 1.76	  126	      6	   2360
241	0	007	6121103500	0	3574604	2016	12	11	03	58	46	0.165810	40	332	293	0	 1.582	 0.370	 0.460	 0.77	 0.80	53.59	 1.50	 0.31	 0.51	 1.53	327.00	336.00	286.00	298.00	 1.53	 1.53	  122	      6	   2361
242	1	007	6121103500	0	-1	2016	12	11	03	58	46	0.165810	 380	   0	   0	0	0	0	0	0	0	0	0	0	0	0	0	0	0	0	0	0	0	0	0
243	2	007	6121103500	0	-1	2016	12	11	03	58	59	0.165961	22795	   0	   0	0	0	0	0	0	0	0	0	0	0	0	0	0	0	0	0	0	0	0	0
244	0	007	6121103500	0	3661588	2016	12	11	03	59	 0	0.165972	289	248	350	0	 1.385	 0.331	 0.360	 0.68	 0.70	109.81	 1.31	 0.28	 0.46	 1.34	245.00	253.00	344.00	354.00	 1.34	 1.34	  129	      6	   7929
245	0	007	6121103500	0	3661692	2016	12	11	03	59	 0	0.165972	290	61	352	0	 1.287	 0.376	 0.380	 0.70	 0.80	101.93	 1.16	 0.33	 0.51	 1.21	 57.00	 65.00	346.00	356.00	 1.21	 1.21	  123	      6	   7930
246	1	007	6121103500	0	-1	2016	12	11	03	59	 0	0.165972	 380	   0	   0	0	0	0	0	0	0	0	0	0	0	0	0	0	0	0	0	0	0	0	0
247	0	007	6121103500	0	3770408	2016	12	11	03	59	13	0.166123	321	362	33	0	 1.791	 0.697	 0.980	 1.12	 1.10	136.67	 1.47	 0.67	 0.92	 1.61	357.00	369.00	 26.00	 40.00	 1.61	 1.61	  154	      6	  12899
248	1	007	6121103500	0	-1	2016	12	11	03	59	13	0.166123	 380	   0	   0	0	0	0	0	0	0	0	0	0	0	0	0	0	0	0	0	0	0	0	0
249	0	007	6121103500	0	3787492	2016	12	11	03	59	15	0.166146	357	403	279	0	 1.496	 0.323	 0.380	 0.70	 0.60	108.57	 1.44	 0.26	 0.45	 1.46	400.00	408.00	272.00	284.00	 1.46	 1.46	  142	      6	  13695
250	0	007	6121103500	0	3787608	2016	12	11	03	59	15	0.166146	358	233	244	0	 1.620	 0.346	 0.440	 0.75	 0.60	104.94	 1.56	 0.28	 0.48	 1.58	230.00	237.00	236.00	250.00	 1.58	 1.58	  143	      6	  13696
251	1	007	6121103500	0	-1	2016	12	11	03	59	15	0.166146	 380	   0	   0	0	0	0	0	0	0	0	0	0	0	0	0	0	0	0	0	0	0	0	0
252	0	007	6121103500	0	3835112	2016	12	11	03	59	19	0.166192	16	485	174	0	 1.385	 0.478	 0.520	 0.81	 1.00	24.73	 1.19	 0.44	 0.64	 1.27	481.00	492.00	170.00	178.00	 1.27	 1.27	  136	      6	  14874
253	0	007	6121103500	0	3835232	2016	12	11	03	59	19	0.166192	17	288	161	0	 1.590	 0.529	 0.660	 0.92	 1.10	25.75	 1.38	 0.48	 0.71	 1.46	282.00	295.00	156.00	166.00	 1.46	 1.46	  123	      6	  14875
254	0	007	6121103500	0	3835384	2016	12	11	03	59	19	0.166192	18	88	148	0	 1.610	 0.538	 0.680	 0.93	 1.10	17.70	 1.40	 0.49	 0.72	 1.48	 82.00	 94.00	144.00	154.00	 1.48	 1.48	  128	      6	  14876
255	1	007	6121103500	0	-1	2016	12	11	03	59	19	0.166192	 380	   0	   0	0	0	0	0	0	0	0	0	0	0	0	0	0	0	0	0	0	0	0	0
256	0	007	6121103500	0	3877560	2016	12	11	03	59	21	0.166215	300	471	409	0	 1.291	 0.592	 0.600	 0.87	 0.80	109.47	 0.94	 0.64	 0.76	 1.13	467.00	476.00	404.00	414.00	 1.13	 1.13	  101	      6	  15918
257	0	007	6121103500	0	3877716	2016	12	11	03	59	21	0.166215	301	269	372	0	 1.565	 0.618	 0.760	 0.98	 1.00	81.60	 1.27	 0.60	 0.81	 1.41	264.00	274.00	366.00	378.00	 1.41	 1.41	   89	      6	  15919
258	0	007	6121103500	0	3877896	2016	12	11	03	59	21	0.166215	302	65	335	0	 1.197	 0.617	 0.580	 0.86	 0.90	93.00	 0.75	 0.75	 0.78	 1.06	 61.00	 70.00	330.00	340.00	 1.06	 1.06	   97	      6	  15920
259	0	007	6121103500	0	3878852	2016	12	11	03	59	21	0.166215	323	506	422	0	 1.229	 0.373	 0.360	 0.68	 0.70	45.43	 1.10	 0.33	 0.50	 1.15	502.00	510.00	418.00	426.00	 1.15	 1.15	  122	      6	  15941
260	0	007	6121103500	0	3878964	2016	12	11	03	59	21	0.166215	324	281	396	0	 1.664	 0.444	 0.580	 0.86	 1.00	12.19	 1.53	 0.38	 0.61	 1.58	275.00	286.00	390.00	400.00	 1.58	 1.58	  117	      6	  15942
261	0	007	6121103500	0	3879096	2016	12	11	03	59	21	0.166215	325	57	370	0	 1.241	 0.349	 0.340	 0.66	 0.70	56.38	 1.13	 0.30	 0.48	 1.17	 53.00	 60.00	364.00	374.00	 1.17	 1.17	  114	      6	  15943
262	1	007	6121103500	0	-1	2016	12	11	03	59	21	0.166215	 380	   0	   0	0	0	0	0	0	0	0	0	0	0	0	0	0	0	0	0	0	0	0	0
263	0	007	6121103500	0	3888248	2016	12	11	03	59	22	0.166227	168	414	137	0	 0.960	 0.478	 0.360	 0.68	 0.70	28.62	 0.60	 0.60	 0.60	 0.84	410.00	418.00	134.00	140.00	 0.84	 0.84	  146	      6	  16166
264	0	007	6121103500	0	3889016	2016	12	11	03	59	22	0.166227	184	347	436	0	 1.036	 0.418	 0.340	 0.66	 0.70	147.25	 0.83	 0.41	 0.55	 0.93	343.00	351.00	434.00	440.00	 0.93	 0.93	  162	      6	  16182
265	0	007	6121103500	0	3889124	2016	12	11	03	59	22	0.166227	185	175	436	0	 1.687	 0.619	 0.820	 1.02	 1.20	145.07	 1.42	 0.58	 0.82	 1.53	169.00	181.00	430.00	442.00	 1.53	 1.53	  154	      6	  16183
266	1	007	6121103500	0	-1	2016	12	11	03	59	22	0.166227	 380	   0	   0	0	0	0	0	0	0	0	0	0	0	0	0	0	0	0	0	0	0	0	0
267	0	007	6121103500	0	3918584	2016	12	11	03	59	24	0.166250	138	616	421	0	 3.319	 0.974	 2.540	 1.80	 1.60	79.17	 2.99	 0.85	 1.32	 3.11	606.00	623.00	408.00	434.00	 3.11	 3.11	  100	      6	  16896
268	0	007	6121103500	0	3919032	2016	12	11	03	59	24	0.166250	139	420	408	0	 3.409	 1.053	 2.820	 1.89	 1.70	81.24	 3.03	 0.93	 1.42	 3.17	409.00	427.00	394.00	422.00	 3.17	 3.17	   85	      6	  16897
269	0	007	6121103500	0	3919576	2016	12	11	03	59	24	0.166250	140	221	395	0	 3.396	 1.005	 2.680	 1.85	 1.70	80.18	 3.06	 0.88	 1.36	 3.18	210.00	228.00	382.00	408.00	 3.18	 3.18	   85	      6	  16898
270	0	007	6121103500	0	3920624	2016	12	11	03	59	24	0.166250	144	583	187	0	 0.982	 0.389	 0.300	 0.62	 0.50	117.00	 0.80	 0.38	 0.51	 0.88	580.00	586.00	184.00	192.00	 0.88	 0.88	  129	      6	  16902
271	0	007	6121103500	0	3920724	2016	12	11	03	59	24	0.166250	145	393	171	0	 0.894	 0.427	 0.300	 0.62	 0.60	133.03	 0.60	 0.50	 0.55	 0.78	391.00	397.00	168.00	174.00	 0.78	 0.78	  124	      6	  16903
272	0	007	6121103500	0	3920824	2016	12	11	03	59	24	0.166250	146	202	154	0	 1.118	 0.456	 0.400	 0.71	 0.70	132.72	 0.89	 0.45	 0.60	 1.00	199.00	206.00	150.00	158.00	 1.00	 1.00	  115	      6	  16904
273	0	007	6121103500	0	3923276	2016	12	11	03	59	24	0.166250	202	498	241	0	 3.584	 0.746	 2.100	 1.64	 2.20	 3.60	 3.46	 0.61	 1.03	 3.51	485.00	511.00	232.00	250.00	 3.51	 3.51	   95	      6	  16960
274	0	007	6121103500	0	3923728	2016	12	11	03	59	24	0.166250	203	311	235	0	 4.002	 0.853	 2.680	 1.85	 2.40	175.56	 3.85	 0.70	 1.18	 3.91	298.00	326.00	226.00	246.00	 3.91	 3.91	   93	      6	  16961
275	0	007	6121103500	0	3924276	2016	12	11	03	59	24	0.166250	204	124	230	0	 3.843	 0.881	 2.660	 1.84	 2.40	 4.16	 3.65	 0.73	 1.21	 3.72	110.00	138.00	222.00	240.00	 3.72	 3.72	   92	      6	  16962
276	1	007	6121103500	0	-1	2016	12	11	03	59	24	0.166250	 379	   0	   0	0	0	0	0	0	0	0	0	0	0	0	0	0	0	0	0	0	0	0	0
277	0	007	6121103500	0	3945244	2016	12	11	03	59	25	0.166262	332	123	313	0	 0.903	 0.367	 0.260	 0.58	 0.70	26.16	 0.72	 0.36	 0.48	 0.81	120.00	127.00	310.00	316.00	 0.81	 0.81	  124	      6	  17469
278	1	007	6121103500	0	-1	2016	12	11	03	59	25	0.166262	 380	   0	   0	0	0	0	0	0	0	0	0	0	0	0	0	0	0	0	0	0	0	0	0
279	0	007	6121103500	0	3960348	2016	12	11	03	59	26	0.166273	328	35	118	0	 0.410	 0.186	 0.060	 0.28	 0.30	180.00	 0.30	 0.20	 0.24	 0.36	 34.00	 37.00	118.00	120.00	 0.36	 0.36	  158	      6	  17845
280	0	007	6121103500	0	3960708	2016	12	11	03	59	26	0.166273	329	496	175	0	 0.461	 0.166	 0.060	 0.28	 0.20	103.04	 0.39	 0.15	 0.22	 0.42	495.00	497.00	174.00	178.00	 0.42	 0.42	  163	      6	  17846
281	0	007	6121103500	0	3960708	2016	12	11	03	59	26	0.166273	329	143	459	0	 3.036	 1.099	 2.620	 1.83	 2.30	16.00	 2.57	 1.02	 1.46	 2.76	133.00	157.00	448.00	468.00	 2.76	 2.76	  111	      6	  17846
282	1	007	6121103500	0	-1	2016	12	11	03	59	26	0.166273	 380	   0	   0	0	0	0	0	0	0	0	0	0	0	0	0	0	0	0	0	0	0	0	0
283	0	007	6121103500	0	3969588	2016	12	11	03	59	27	0.166285	144	422	270	0	 1.797	 0.623	 0.880	 1.06	 1.10	138.56	 1.54	 0.57	 0.83	 1.64	417.00	429.00	264.00	276.00	 1.64	 1.64	  134	      6	  18041
284	0	007	6121103500	0	3969732	2016	12	11	03	59	27	0.166285	145	242	273	0	 1.954	 0.534	 0.820	 1.02	 1.20	157.42	 1.79	 0.46	 0.73	 1.85	238.00	250.00	266.00	278.00	 1.85	 1.85	  123	      6	  18042
285	0	007	6121103500	0	3969884	2016	12	11	03	59	27	0.166285	146	62	276	0	 1.830	 0.654	 0.940	 1.09	 1.20	167.38	 1.55	 0.61	 0.87	 1.67	 57.00	 70.00	270.00	282.00	 1.67	 1.67	  128	      6	  18043
286	0	007	6121103500	0	3972936	2016	12	11	03	59	27	0.166285	217	242	337	0	 1.119	 0.455	 0.400	 0.71	 0.60	115.73	 0.89	 0.45	 0.60	 1.00	239.00	246.00	332.00	342.00	 1.00	 1.00	  154	      6	  18114
287	0	007	6121103500	0	3973056	2016	12	11	03	59	27	0.166285	218	46	349	0	 1.077	 0.449	 0.380	 0.70	 0.60	104.85	 0.85	 0.45	 0.59	 0.96	 43.00	 49.00	344.00	354.00	 0.96	 0.96	  157	      6	  18115
288	0	007	6121103500	0	3974068	2016	12	11	03	59	27	0.166285	241	561	197	0	 0.943	 0.351	 0.260	 0.58	 0.50	139.38	 0.79	 0.33	 0.47	 0.85	558.00	565.00	194.00	200.00	 0.85	 0.85	  132	      6	  18138
289	0	007	6121103500	0	3974244	2016	12	11	03	59	27	0.166285	243	210	186	0	 1.063	 0.359	 0.300	 0.62	 0.50	130.12	 0.92	 0.33	 0.48	 0.98	207.00	214.00	182.00	190.00	 0.98	 0.98	  138	      6	  18140
290	0	007	6121103500	0	3974344	2016	12	11	03	59	27	0.166285	244	33	181	0	 1.043	 0.366	 0.300	 0.62	 0.50	130.70	 0.89	 0.34	 0.49	 0.95	 30.00	 37.00	178.00	186.00	 0.95	 0.95	  126	      6	  18141
291	0	007	6121103500	0	3975324	2016	12	11	03	59	27	0.166285	267	487	87	0	 1.606	 0.428	 0.540	 0.83	 0.80	135.49	 1.48	 0.36	 0.58	 1.53	484.00	495.00	 82.00	 92.00	 1.53	 1.53	  147	      6	  18164
292	0	007	6121103500	0	3975464	2016	12	11	03	59	27	0.166285	268	323	76	0	 1.691	 0.392	 0.520	 0.81	 0.80	142.85	 1.60	 0.32	 0.54	 1.64	319.00	331.00	 70.00	 80.00	 1.64	 1.64	  138	      6	  18165
293	0	007	6121103500	0	3975600	2016	12	11	03	59	27	0.166285	269	158	64	0	 1.469	 0.381	 0.440	 0.75	 0.80	139.65	 1.36	 0.32	 0.52	 1.40	154.00	164.00	 58.00	 68.00	 1.40	 1.40	  146	      6	  18166
294	1	007	6121103500	0	-1	2016	12	11	03	59	27	0.166285	 380	   0	   0	0	0	0	0	0	0	0	0	0	0	0	0	0	0	0	0	0	0	0	0
295	0	007	6121103500	0	3996332	2016	12	11	03	59	29	0.166308	15	205	368	0	 0.950	 0.402	 0.300	 0.62	 0.50	76.63	 0.74	 0.41	 0.52	 0.84	203.00	208.00	364.00	372.00	 0.84	 0.84	  141	      6	  18672
296	1	007	6121103500	0	-1	2016	12	11	03	59	29	0.166308	 380	   0	   0	0	0	0	0	0	0	0	0	0	0	0	0	0	0	0	0	0	0	0	0
297	0	007	6121103500	0	4011648	2016	12	11	03	59	30	0.166319	 6	577	351	0	 1.113	 0.412	 0.360	 0.68	 0.70	30.31	 0.93	 0.39	 0.55	 1.01	573.00	582.00	348.00	354.00	 1.01	 1.01	  144	      6	  19043
298	0	007	6121103500	0	4011760	2016	12	11	03	59	30	0.166319	 7	380	330	0	 1.303	 0.430	 0.440	 0.75	 0.80	32.32	 1.14	 0.39	 0.58	 1.20	376.00	386.00	326.00	334.00	 1.20	 1.20	  134	      6	  19044
299	0	007	6121103500	0	4011888	2016	12	11	03	59	30	0.166319	 8	182	308	0	 1.226	 0.374	 0.360	 0.68	 0.70	35.73	 1.10	 0.33	 0.51	 1.14	178.00	187.00	304.00	312.00	 1.14	 1.14	  140	      6	  19045
300	0	007	6121103500	0	4013400	2016	12	11	03	59	30	0.166319	44	476	451	0	 1.465	 0.261	 0.300	 0.62	 0.30	100.56	 1.45	 0.21	 0.36	 1.46	474.00	480.00	444.00	458.00	 1.46	 1.46	  138	      6	  19081
301	0	007	6121103500	0	4013400	2016	12	11	03	59	30	0.166319	44	342	460	0	 0.500	 0.204	 0.080	 0.32	 0.40	180.00	 0.40	 0.20	 0.27	 0.45	340.00	344.00	460.00	462.00	 0.45	 0.45	  163	      6	  19081
302	0	007	6121103500	0	4021560	2016	12	11	03	59	30	0.166319	237	345	362	0	 0.972	 0.471	 0.360	 0.68	 0.60	62.41	 0.61	 0.59	 0.60	 0.85	342.00	349.00	358.00	366.00	 0.85	 0.85	  131	      6	  19274
303	0	007	6121103500	0	4021672	2016	12	11	03	59	30	0.166319	238	127	373	0	 1.027	 0.446	 0.360	 0.68	 0.70	41.89	 0.79	 0.46	 0.58	 0.91	124.00	131.00	370.00	378.00	 0.91	 0.91	  132	      6	  19275
304	0	007	6121103500	0	4024628	2016	12	11	03	59	30	0.166319	308	487	317	0	 0.997	 0.383	 0.300	 0.62	 0.70	152.90	 0.82	 0.37	 0.51	 0.90	484.00	492.00	314.00	320.00	 0.90	 0.90	  139	      6	  19345
305	0	007	6121103500	0	4024628	2016	12	11	03	59	30	0.166319	308	502	323	0	 0.726	 0.246	 0.140	 0.42	 0.40	82.48	 0.63	 0.22	 0.33	 0.67	500.00	504.00	320.00	326.00	 0.67	 0.67	  146	      6	  19345
306	0	007	6121103500	0	4024764	2016	12	11	03	59	30	0.166319	309	300	319	0	 1.062	 0.408	 0.340	 0.66	 0.70	152.79	 0.87	 0.39	 0.54	 0.96	296.00	305.00	316.00	322.00	 0.96	 0.96	  134	      6	  19346
307	0	007	6121103500	0	4024764	2016	12	11	03	59	30	0.166319	309	314	327	0	 2.532	 0.292	 0.580	 0.86	 0.50	87.95	 2.61	 0.22	 0.41	 2.62	311.00	318.00	316.00	340.00	 2.62	 2.62	  137	      6	  19346
308	0	007	6121103500	0	4024968	2016	12	11	03	59	30	0.166319	310	124	328	0	 2.557	 0.358	 0.720	 0.96	 0.60	85.98	 2.59	 0.28	 0.50	 2.61	121.00	129.00	318.00	342.00	 2.61	 2.61	  135	      6	  19347
309	0	007	6121103500	0	4026824	2016	12	11	03	59	30	0.166319	347	334	420	0	 3.593	 0.815	 2.300	 1.71	 1.00	75.98	 3.42	 0.67	 1.12	 3.49	328.00	342.00	404.00	436.00	 3.49	 3.49	  128	      6	  19384
310	0	007	6121103500	0	4027312	2016	12	11	03	59	30	0.166319	348	122	428	0	 3.612	 0.768	 2.180	 1.67	 1.00	75.80	 3.47	 0.63	 1.06	 3.53	116.00	130.00	412.00	444.00	 3.53	 3.53	  130	      6	  19385
311	1	007	6121103500	0	-1	2016	12	11	03	59	30	0.166319	 380	   0	   0	0	0	0	0	0	0	0	0	0	0	0	0	0	0	0	0	0	0	0	0
312	0	007	6121103500	0	4041496	2016	12	11	03	59	31	0.166331	306	598	312	0	 1.547	 0.609	 0.740	 0.97	 1.20	13.46	 1.26	 0.59	 0.80	 1.39	593.00	605.00	308.00	318.00	 1.39	 1.39	   96	      6	  19723
313	0	007	6121103500	0	4041720	2016	12	11	03	59	31	0.166331	307	402	317	0	 1.408	 0.669	 0.740	 0.97	 1.10	22.27	 0.96	 0.77	 0.85	 1.23	397.00	409.00	314.00	322.00	 1.23	 1.23	   81	      6	  19724
314	0	007	6121103500	0	4041720	2016	12	11	03	59	31	0.166331	307	441	320	0	 1.180	 0.496	 0.460	 0.77	 0.60	55.49	 0.92	 0.50	 0.65	 1.05	437.00	445.00	316.00	324.00	 1.05	 1.05	  124	      6	  19724
315	0	007	6121103500	0	4041984	2016	12	11	03	59	31	0.166331	308	241	321	0	 1.298	 0.530	 0.540	 0.83	 0.80	45.67	 1.04	 0.52	 0.69	 1.16	237.00	247.00	316.00	326.00	 1.16	 1.16	  102	      6	  19725
316	0	007	6121103500	0	4041984	2016	12	11	03	59	31	0.166331	308	204	322	0	 1.547	 0.807	 0.980	 1.12	 1.20	32.48	 0.97	 0.97	 1.01	 1.37	199.00	212.00	318.00	328.00	 1.37	 1.37	   76	      6	  19725
317	0	007	6121103500	0	4042300	2016	12	11	03	59	31	0.166331	309	40	322	0	 1.400	 0.546	 0.600	 0.87	 0.90	52.60	 1.15	 0.52	 0.72	 1.26	 36.00	 46.00	318.00	328.00	 1.26	 1.26	   86	      6	  19726
318	1	007	6121103500	0	-1	2016	12	11	03	59	31	0.166331	 380	   0	   0	0	0	0	0	0	0	0	0	0	0	0	0	0	0	0	0	0	0	0	0
319	0	007	6121103500	0	4047004	2016	12	11	03	59	32	0.166343	39	559	205	0	 1.997	 0.727	 1.140	 1.20	 1.20	101.77	 1.68	 0.68	 0.97	 1.81	553.00	565.00	198.00	214.00	 1.81	 1.81	  101	      6	  19836
320	0	007	6121103500	0	4047252	2016	12	11	03	59	32	0.166343	40	341	200	0	 2.014	 0.670	 1.060	 1.16	 1.30	138.11	 1.75	 0.60	 0.90	 1.85	333.00	347.00	194.00	208.00	 1.85	 1.85	  118	      6	  19837
321	0	007	6121103500	0	4047492	2016	12	11	03	59	32	0.166343	41	120	196	0	 2.025	 0.604	 0.960	 1.11	 1.20	90.98	 1.82	 0.53	 0.82	 1.89	113.00	125.00	188.00	202.00	 1.89	 1.89	  128	      6	  19838
322	0	007	6121103500	0	4055620	2016	12	11	03	59	32	0.166343	237	494	46	0	 1.706	 0.776	 1.040	 1.15	 0.90	85.02	 1.25	 0.83	 1.00	 1.50	489.00	499.00	 40.00	 54.00	 1.50	 1.50	  128	      6	  20034
323	0	007	6121103500	0	4055828	2016	12	11	03	59	32	0.166343	238	279	40	0	 1.788	 0.627	 0.880	 1.06	 0.80	75.48	 1.53	 0.58	 0.84	 1.63	274.00	284.00	 34.00	 48.00	 1.63	 1.63	  131	      6	  20035
324	0	007	6121103500	0	4055996	2016	12	11	03	59	32	0.166343	239	62	35	0	 1.954	 0.665	 1.020	 1.14	 1.00	74.61	 1.69	 0.60	 0.89	 1.79	 57.00	 68.00	 28.00	 44.00	 1.79	 1.79	  125	      6	  20036
325	1	007	6121103500	0	-1	2016	12	11	03	59	32	0.166343	 380	   0	   0	0	0	0	0	0	0	0	0	0	0	0	0	0	0	0	0	0	0	0	0
326	0	007	6121103500	0	4062928	2016	12	11	03	59	33	0.166354	27	337	63	0	 1.236	 0.639	 0.620	 0.89	 0.90	152.24	 0.77	 0.77	 0.80	 1.09	333.00	342.00	 60.00	 68.00	 1.09	 1.09	  154	      6	  20204
327	1	007	6121103500	0	-1	2016	12	11	03	59	33	0.166354	 380	   0	   0	0	0	0	0	0	0	0	0	0	0	0	0	0	0	0	0	0	0	0	0
328	0	007	6121103500	0	4083372	2016	12	11	03	59	34	0.166366	147	579	241	0	 1.034	 0.542	 0.440	 0.75	 0.80	16.12	 0.65	 0.65	 0.68	 0.92	575.00	584.00	238.00	244.00	 0.92	 0.92	  127	      6	  20704
329	0	007	6121103500	0	4083500	2016	12	11	03	59	34	0.166366	148	409	225	0	 1.021	 0.399	 0.320	 0.64	 0.80	17.30	 0.83	 0.38	 0.53	 0.92	405.00	413.00	222.00	228.00	 0.92	 0.92	  124	      6	  20705
330	0	007	6121103500	0	4083692	2016	12	11	03	59	34	0.166366	150	65	195	0	 0.880	 0.376	 0.260	 0.58	 0.60	37.24	 0.68	 0.38	 0.49	 0.78	 62.00	 69.00	192.00	198.00	 0.78	 0.78	  133	      6	  20707
331	0	007	6121103500	0	4083692	2016	12	11	03	59	34	0.166366	150	280	372	0	 0.410	 0.186	 0.060	 0.28	 0.30	180.00	 0.30	 0.20	 0.24	 0.36	279.00	282.00	372.00	374.00	 0.36	 0.36	  149	      6	  20707
332	0	007	6121103500	0	4084752	2016	12	11	03	59	34	0.166366	170	194	45	0	 0.796	 0.384	 0.240	 0.55	 0.50	57.78	 0.52	 0.46	 0.49	 0.70	192.00	197.00	 42.00	 48.00	 0.70	 0.70	  145	      6	  20727
333	0	007	6121103500	0	4084752	2016	12	11	03	59	34	0.166366	170	549	109	0	 0.704	 0.326	 0.180	 0.48	 0.50	157.10	 0.50	 0.36	 0.42	 0.62	547.00	552.00	108.00	112.00	 0.62	 0.62	  123	      6	  20727
334	0	007	6121103500	0	4084880	2016	12	11	03	59	34	0.166366	171	368	94	0	 0.704	 0.326	 0.180	 0.48	 0.50	157.61	 0.50	 0.36	 0.42	 0.62	366.00	371.00	 92.00	 96.00	 0.62	 0.62	  123	      6	  20728
335	0	007	6121103500	0	4093220	2016	12	11	03	59	34	0.166366	372	590	348	0	 1.162	 0.438	 0.400	 0.71	 0.50	124.10	 0.97	 0.41	 0.58	 1.05	587.00	595.00	344.00	352.00	 1.05	 1.05	  116	      6	  20929
336	0	007	6121103500	0	4093340	2016	12	11	03	59	34	0.166366	373	418	344	0	 1.289	 0.435	 0.440	 0.75	 0.60	135.71	 1.12	 0.39	 0.58	 1.18	414.00	424.00	340.00	348.00	 1.18	 1.18	  112	      6	  20930
337	0	007	6121103500	0	4093468	2016	12	11	03	59	34	0.166366	374	245	340	0	 1.364	 0.485	 0.520	 0.81	 0.70	135.65	 1.16	 0.45	 0.65	 1.24	241.00	251.00	336.00	346.00	 1.24	 1.24	  114	      6	  20931
338	0	007	6121103500	0	4093612	2016	12	11	03	59	34	0.166366	375	71	336	0	 1.576	 0.582	 0.720	 0.96	 1.10	147.13	 1.32	 0.55	 0.77	 1.43	 66.00	 78.00	332.00	342.00	 1.43	 1.43	  103	      6	  20932
339	1	007	6121103500	0	-1	2016	12	11	03	59	34	0.166366	 380	   0	   0	0	0	0	0	0	0	0	0	0	0	0	0	0	0	0	0	0	0	0	0
340	0	007	6121103500	0	4115316	2016	12	11	03	59	36	0.166389	144	558	105	0	 1.250	 0.428	 0.420	 0.73	 0.70	63.82	 1.08	 0.39	 0.57	 1.15	554.00	561.00	100.00	110.00	 1.15	 1.15	  133	      6	  21461
341	0	007	6121103500	0	4115428	2016	12	11	03	59	36	0.166389	145	363	95	0	 1.444	 0.529	 0.600	 0.87	 0.80	59.33	 1.21	 0.49	 0.70	 1.31	358.00	368.00	 90.00	100.00	 1.31	 1.31	  116	      6	  21462
342	0	007	6121103500	0	4115588	2016	12	11	03	59	36	0.166389	146	166	83	0	 1.362	 0.617	 0.660	 0.92	 0.80	61.46	 1.00	 0.66	 0.79	 1.20	162.00	171.00	 78.00	 90.00	 1.20	 1.20	  123	      6	  21463
343	0	007	6121103500	0	4123032	2016	12	11	03	59	36	0.166389	327	567	346	0	 1.541	 0.380	 0.460	 0.77	 1.10	16.99	 1.44	 0.32	 0.52	 1.48	561.00	575.00	344.00	350.00	 1.48	 1.48	  115	      6	  21644
344	0	007	6121103500	0	4123164	2016	12	11	03	59	36	0.166389	328	364	317	0	 1.781	 0.472	 0.660	 0.92	 1.30	17.82	 1.65	 0.40	 0.64	 1.69	357.00	373.00	314.00	322.00	 1.69	 1.69	   96	      6	  21645
345	0	007	6121103500	0	4123332	2016	12	11	03	59	36	0.166389	329	157	288	0	 1.687	 0.453	 0.600	 0.87	 1.40	13.52	 1.55	 0.39	 0.62	 1.60	152.00	166.00	284.00	292.00	 1.60	 1.60	  114	      6	  21646
346	1	007	6121103500	0	-1	2016	12	11	03	59	36	0.166389	 379	   0	   0	0	0	0	0	0	0	0	0	0	0	0	0	0	0	0	0	0	0	0	0
347	0	007	6121103500	0	4128928	2016	12	11	03	59	37	0.166400	81	157	82	0	 1.213	 0.504	 0.480	 0.78	 0.60	57.56	 0.96	 0.50	 0.66	 1.08	154.00	162.00	 78.00	 88.00	 1.08	 1.08	  154	      6	  21777
348	0	007	6121103500	0	4133228	2016	12	11	03	59	37	0.166400	185	488	342	0	 2.676	 0.600	 1.260	 1.27	 1.60	31.18	 2.55	 0.49	 0.83	 2.60	479.00	497.00	334.00	352.00	 2.60	 2.60	   99	      6	  21881
349	0	007	6121103500	0	4133480	2016	12	11	03	59	37	0.166400	186	560	179	0	 2.876	 0.752	 1.700	 1.47	 1.60	178.34	 2.66	 0.64	 1.03	 2.74	553.00	570.00	168.00	188.00	 2.74	 2.74	  130	      6	  21882
350	0	007	6121103500	0	4133480	2016	12	11	03	59	37	0.166400	186	269	330	0	 2.335	 0.622	 1.140	 1.20	 1.40	35.50	 2.16	 0.53	 0.85	 2.22	262.00	278.00	324.00	340.00	 2.22	 2.22	  103	      6	  21882
351	0	007	6121103500	0	4133944	2016	12	11	03	59	37	0.166400	187	339	164	0	 3.286	 0.760	 1.960	 1.58	 1.70	159.95	 3.12	 0.63	 1.05	 3.18	330.00	349.00	152.00	174.00	 3.18	 3.18	  117	      6	  21883
352	0	007	6121103500	0	4133944	2016	12	11	03	59	37	0.166400	187	49	318	0	 2.655	 0.624	 1.300	 1.29	 1.40	43.27	 2.51	 0.52	 0.86	 2.56	 41.00	 58.00	308.00	328.00	 2.56	 2.56	   85	      6	  21883
353	0	007	6121103500	0	4134576	2016	12	11	03	59	37	0.166400	188	116	149	0	 3.463	 0.677	 1.840	 1.53	 1.80	162.14	 3.37	 0.55	 0.94	 3.42	107.00	127.00	136.00	160.00	 3.42	 3.42	  122	      6	  21884
354	0	007	6121103500	0	4137320	2016	12	11	03	59	37	0.166400	248	608	96	0	 1.382	 0.498	 0.540	 0.83	 1.00	21.75	 1.17	 0.46	 0.66	 1.26	602.00	614.00	 92.00	100.00	 1.26	 1.26	  112	      6	  21944
355	0	007	6121103500	0	4137468	2016	12	11	03	59	37	0.166400	249	399	77	0	 1.573	 0.453	 0.560	 0.84	 1.20	15.31	 1.42	 0.39	 0.62	 1.48	393.00	405.00	 74.00	 82.00	 1.48	 1.48	  114	      6	  21945
356	0	007	6121103500	0	4137628	2016	12	11	03	59	37	0.166400	250	189	59	0	 1.441	 0.477	 0.540	 0.83	 1.10	19.52	 1.26	 0.43	 0.64	 1.33	183.00	195.00	 54.00	 62.00	 1.33	 1.33	  129	      6	  21946
357	0	007	6121103500	0	4140000	2016	12	11	03	59	37	0.166400	305	173	265	0	 1.191	 0.385	 0.360	 0.68	 0.50	76.99	 1.05	 0.34	 0.52	 1.10	170.00	176.00	260.00	270.00	 1.10	 1.10	  120	      6	  22001
358	1	007	6121103500	0	-1	2016	12	11	03	59	37	0.166400	 380	   0	   0	0	0	0	0	0	0	0	0	0	0	0	0	0	0	0	0	0	0	0	0
359	0	007	6121103500	0	4143292	2016	12	11	03	59	38	0.166412	 4	484	207	0	 1.308	 0.448	 0.460	 0.77	 0.80	42.47	 1.13	 0.41	 0.60	 1.20	480.00	489.00	202.00	212.00	 1.20	 1.20	  135	      6	  22080
360	0	007	6121103500	0	4143424	2016	12	11	03	59	38	0.166412	 5	246	207	0	 1.450	 0.562	 0.640	 0.90	 0.90	46.45	 1.19	 0.54	 0.74	 1.31	241.00	251.00	202.00	212.00	 1.31	 1.31	  130	      6	  22081
361	0	007	6121103500	0	4147192	2016	12	11	03	59	38	0.166412	92	598	150	0	 1.198	 0.319	 0.300	 0.62	 0.90	160.71	 1.11	 0.27	 0.44	 1.14	594.00	603.00	148.00	154.00	 1.14	 1.14	  152	      6	  22168
362	0	007	6121103500	0	4149704	2016	12	11	03	59	38	0.166412	148	67	264	0	 0.487	 0.209	 0.080	 0.32	 0.30	90.00	 0.38	 0.21	 0.27	 0.43	 66.00	 69.00	262.00	266.00	 0.43	 0.43	  164	      6	  22224
363	0	007	6121103500	0	4149704	2016	12	11	03	59	38	0.166412	148	518	299	0	 1.573	 0.291	 0.360	 0.68	 1.10	165.78	 1.54	 0.23	 0.41	 1.56	511.00	522.00	296.00	304.00	 1.56	 1.56	  145	      6	  22224
364	0	007	6121103500	0	4156848	2016	12	11	03	59	38	0.166412	312	611	138	0	 0.635	 0.200	 0.100	 0.36	 0.30	35.89	 0.56	 0.18	 0.27	 0.59	609.00	614.00	136.00	140.00	 0.59	 0.59	  155	      6	  22388
365	0	007	6121103500	0	4156848	2016	12	11	03	59	38	0.166412	312	621	156	0	 0.956	 0.186	 0.140	 0.42	 0.30	76.03	 0.93	 0.15	 0.26	 0.94	619.00	623.00	152.00	160.00	 0.94	 0.94	  154	      6	  22388
366	0	007	6121103500	0	4156848	2016	12	11	03	59	38	0.166412	312	57	239	0	 0.656	 0.272	 0.140	 0.42	 0.30	90.00	 0.52	 0.27	 0.36	 0.58	 56.00	 59.00	236.00	242.00	 0.58	 0.58	  164	      6	  22388
367	0	007	6121103500	0	4157048	2016	12	11	03	59	38	0.166412	313	371	170	0	 0.751	 0.305	 0.180	 0.48	 0.30	90.00	 0.60	 0.30	 0.40	 0.67	370.00	373.00	168.00	174.00	 0.67	 0.67	  157	      6	  22389
368	1	007	6121103500	0	-1	2016	12	11	03	59	38	0.166412	 381	   0	   0	0	0	0	0	0	0	0	0	0	0	0	0	0	0	0	0	0	0	0	0
369	0	007	6121103500	0	4163584	2016	12	11	03	59	39	0.166424	93	427	221	0	 1.876	 0.312	 0.460	 0.77	 1.30	175.61	 1.87	 0.25	 0.44	 1.88	419.00	433.00	218.00	228.00	 1.88	 1.88	  132	      6	  22550
370	0	007	6121103500	0	4163724	2016	12	11	03	59	39	0.166424	94	154	194	0	 0.410	 0.186	 0.060	 0.28	 0.30	180.00	 0.30	 0.20	 0.24	 0.36	153.00	156.00	194.00	196.00	 0.36	 0.36	  158	      6	  22551
371	1	007	6121103500	0	-1	2016	12	11	03	59	39	0.166424	 380	   0	   0	0	0	0	0	0	0	0	0	0	0	0	0	0	0	0	0	0	0	0	0
372	0	007	6121103500	0	4181508	2016	12	11	03	59	40	0.166435	147	554	390	0	 1.011	 0.403	 0.320	 0.64	 0.70	55.99	 0.82	 0.39	 0.53	 0.91	552.00	559.00	386.00	394.00	 0.91	 0.91	  126	      6	  22984
373	0	007	6121103500	0	4181612	2016	12	11	03	59	40	0.166435	148	314	381	0	 0.984	 0.414	 0.320	 0.64	 0.60	62.82	 0.77	 0.41	 0.54	 0.88	312.00	318.00	378.00	386.00	 0.88	 0.88	  116	      6	  22985
374	0	007	6121103500	0	4181716	2016	12	11	03	59	40	0.166435	149	71	373	0	 1.102	 0.439	 0.380	 0.70	 0.70	47.93	 0.89	 0.43	 0.58	 0.99	 68.00	 75.00	370.00	378.00	 0.99	 0.99	  103	      6	  22986
375	0	007	6121103500	0	4182112	2016	12	11	03	59	40	0.166435	157	538	146	0	 3.142	 0.413	 1.020	 1.14	 1.50	158.73	 3.20	 0.32	 0.58	 3.22	526.00	551.00	138.00	154.00	 3.22	 3.22	  136	      6	  22994
376	0	007	6121103500	0	4182304	2016	12	11	03	59	40	0.166435	158	276	160	0	 3.214	 0.452	 1.140	 1.20	 1.50	161.51	 3.25	 0.35	 0.63	 3.27	264.00	290.00	152.00	166.00	 3.27	 3.27	  124	      6	  22995
377	0	007	6121103500	0	4189180	2016	12	11	03	59	40	0.166435	318	439	416	0	 1.303	 0.371	 0.380	 0.70	 0.70	92.04	 1.18	 0.32	 0.50	 1.23	437.00	444.00	412.00	422.00	 1.23	 1.23	  136	      6	  23155
378	0	007	6121103500	0	4189288	2016	12	11	03	59	40	0.166435	319	196	404	0	 1.273	 0.400	 0.400	 0.71	 0.60	98.93	 1.13	 0.35	 0.54	 1.18	193.00	200.00	400.00	410.00	 1.18	 1.18	  127	      6	  23156
379	1	007	6121103500	0	-1	2016	12	11	03	59	40	0.166435	 380	   0	   0	0	0	0	0	0	0	0	0	0	0	0	0	0	0	0	0	0	0	0	0
380	0	007	6121103500	0	4200528	2016	12	11	03	59	41	0.166447	209	618	410	0	 2.024	 0.541	 0.860	 1.05	 1.00	70.24	 1.87	 0.46	 0.74	 1.92	614.00	625.00	402.00	418.00	 1.92	 1.92	  132	      6	  23426
381	0	007	6121103500	0	4200680	2016	12	11	03	59	41	0.166447	210	386	458	0	 2.178	 0.608	 1.040	 1.15	 1.00	71.22	 1.99	 0.52	 0.83	 2.06	381.00	393.00	452.00	468.00	 2.06	 2.06	  124	      6	  23427
382	0	007	6121103500	0	4201552	2016	12	11	03	59	41	0.166447	228	533	242	0	 2.506	 0.569	 1.120	 1.19	 1.80	12.76	 2.38	 0.47	 0.78	 2.43	522.00	545.00	238.00	248.00	 2.43	 2.43	  114	      6	  23445
383	0	007	6121103500	0	4201776	2016	12	11	03	59	41	0.166447	229	304	298	0	 2.581	 0.632	 1.280	 1.28	 2.20	 9.99	 2.42	 0.53	 0.87	 2.48	292.00	316.00	294.00	304.00	 2.48	 2.48	  107	      6	  23446
384	0	007	6121103500	0	4202052	2016	12	11	03	59	41	0.166447	230	72	354	0	 2.573	 0.584	 1.180	 1.23	 2.30	 9.00	 2.45	 0.48	 0.81	 2.50	 60.00	 83.00	350.00	360.00	 2.50	 2.50	  116	      6	  23447
385	1	007	6121103500	0	-1	2016	12	11	03	59	41	0.166447	 379	   0	   0	0	0	0	0	0	0	0	0	0	0	0	0	0	0	0	0	0	0	0	0
386	0	007	6121103500	0	4221508	2016	12	11	03	59	42	0.166458	317	469	250	0	 1.365	 0.578	 0.620	 0.89	 1.10	169.81	 1.06	 0.58	 0.75	 1.21	465.00	476.00	246.00	254.00	 1.21	 1.21	  136	      6	  23913
387	0	007	6121103500	0	4221672	2016	12	11	03	59	42	0.166458	318	269	240	0	 0.901	 0.424	 0.300	 0.62	 0.60	85.65	 0.63	 0.48	 0.54	 0.79	267.00	273.00	238.00	244.00	 0.79	 0.79	  144	      6	  23914
388	0	007	6121103500	0	4221772	2016	12	11	03	59	42	0.166458	319	71	231	0	 1.144	 0.490	 0.440	 0.75	 0.90	169.51	 0.88	 0.50	 0.64	 1.01	 67.00	 76.00	228.00	234.00	 1.01	 1.01	  139	      6	  23915
389	1	007	6121103500	0	-1	2016	12	11	03	59	42	0.166458	 380	   0	   0	0	0	0	0	0	0	0	0	0	0	0	0	0	0	0	0	0	0	0	0
390	0	007	6121103500	0	4226848	2016	12	11	03	59	43	0.166470	64	587	260	0	 1.610	 0.316	 0.400	 0.71	 0.90	42.95	 1.57	 0.26	 0.44	 1.59	581.00	591.00	254.00	264.00	 1.59	 1.59	  129	      6	  24040
391	0	007	6121103500	0	4226956	2016	12	11	03	59	43	0.166470	65	383	237	0	 2.024	 0.566	 0.900	 1.07	 1.40	11.47	 1.85	 0.49	 0.77	 1.91	375.00	390.00	230.00	242.00	 1.91	 1.91	  132	      6	  24041
392	0	007	6121103500	0	4238240	2016	12	11	03	59	43	0.166470	341	429	306	0	 1.714	 0.564	 0.760	 0.98	 1.50	177.41	 1.50	 0.51	 0.76	 1.58	422.00	437.00	302.00	310.00	 1.58	 1.58	  117	      6	  24317
393	0	007	6121103500	0	4238416	2016	12	11	03	59	43	0.166470	342	209	299	0	 1.831	 0.640	 0.920	 1.08	 1.50	171.53	 1.57	 0.59	 0.85	 1.67	202.00	218.00	294.00	304.00	 1.67	 1.67	  125	      6	  24318
394	1	007	6121103500	0	-1	2016	12	11	03	59	43	0.166470	 380	   0	   0	0	0	0	0	0	0	0	0	0	0	0	0	0	0	0	0	0	0	0	0
395	0	007	6121103500	0	4242748	2016	12	11	03	59	44	0.166481	64	570	237	0	 1.918	 0.465	 0.700	 0.94	 1.10	42.77	 1.80	 0.39	 0.64	 1.85	564.00	578.00	232.00	244.00	 1.85	 1.85	  117	      6	  24420
396	0	007	6121103500	0	4242884	2016	12	11	03	59	44	0.166481	65	338	212	0	 1.537	 0.381	 0.460	 0.77	 0.70	74.54	 1.44	 0.32	 0.52	 1.47	333.00	343.00	208.00	218.00	 1.47	 1.47	  129	      6	  24421
397	0	007	6121103500	0	4249040	2016	12	11	03	59	44	0.166481	215	560	233	0	 2.023	 0.554	 0.880	 1.06	 0.70	58.69	 1.86	 0.47	 0.76	 1.92	553.00	566.00	224.00	240.00	 1.92	 1.92	  117	      6	  24571
398	0	007	6121103500	0	4249252	2016	12	11	03	59	44	0.166481	216	357	236	0	 2.058	 0.668	 1.080	 1.17	 0.80	60.72	 1.80	 0.60	 0.90	 1.90	350.00	364.00	228.00	244.00	 1.90	 1.90	  110	      6	  24572
399	0	007	6121103500	0	4249508	2016	12	11	03	59	44	0.166481	217	152	240	0	 2.032	 0.552	 0.880	 1.06	 0.70	61.81	 1.87	 0.47	 0.75	 1.93	145.00	158.00	232.00	248.00	 1.93	 1.93	  119	      6	  24573
400	1	007	6121103500	0	-1	2016	12	11	03	59	44	0.166481	 380	   0	   0	0	0	0	0	0	0	0	0	0	0	0	0	0	0	0	0	0	0	0	0
401	0	007	6121103500	0	4256684	2016	12	11	03	59	45	0.166493	 2	79	70	0	 0.987	 0.387	 0.300	 0.62	 0.70	33.56	 0.80	 0.37	 0.51	 0.89	 76.00	 83.00	 68.00	 74.00	 0.89	 0.89	  113	      6	  24738
402	0	007	6121103500	0	4257224	2016	12	11	03	59	45	0.166493	14	496	226	0	 1.281	 0.358	 0.360	 0.68	 1.00	172.38	 1.17	 0.31	 0.49	 1.21	491.00	501.00	224.00	230.00	 1.21	 1.21	  142	      6	  24750
403	0	007	6121103500	0	4258224	2016	12	11	03	59	45	0.166493	34	586	203	0	 1.037	 0.368	 0.300	 0.62	 0.60	57.09	 0.88	 0.34	 0.49	 0.95	583.00	589.00	198.00	206.00	 0.95	 0.95	  121	      6	  24770
404	0	007	6121103500	0	4258412	2016	12	11	03	59	45	0.166493	36	196	159	0	 1.026	 0.397	 0.320	 0.64	 0.70	37.78	 0.84	 0.38	 0.52	 0.92	192.00	200.00	156.00	162.00	 0.92	 0.92	  122	      6	  24772
405	0	007	6121103500	0	4262632	2016	12	11	03	59	45	0.166493	139	565	146	0	 0.410	 0.186	 0.060	 0.28	 0.30	180.00	 0.30	 0.20	 0.24	 0.36	564.00	567.00	146.00	148.00	 0.36	 0.36	  154	      6	  24875
406	0	007	6121103500	0	4262632	2016	12	11	03	59	45	0.166493	139	598	285	0	 1.823	 0.643	 0.920	 1.08	 1.30	158.26	 1.55	 0.59	 0.86	 1.66	591.00	605.00	282.00	292.00	 1.66	 1.66	  157	      6	  24875
407	0	007	6121103500	0	4262804	2016	12	11	03	59	45	0.166493	140	399	270	0	 1.119	 0.592	 0.520	 0.81	 0.70	90.05	 0.70	 0.70	 0.74	 0.99	396.00	403.00	266.00	274.00	 0.99	 0.99	  149	      6	  24876
408	1	007	6121103500	0	-1	2016	12	11	03	59	45	0.166493	 380	   0	   0	0	0	0	0	0	0	0	0	0	0	0	0	0	0	0	0	0	0	0	0
409	0	007	6121103500	0	4274752	2016	12	11	03	59	46	0.166505	48	459	294	0	 2.578	 0.731	 1.480	 1.37	 1.30	72.71	 2.35	 0.63	 0.99	 2.43	452.00	465.00	284.00	304.00	 2.43	 2.43	  138	      6	  25164
410	0	007	6121103500	0	4275044	2016	12	11	03	59	46	0.166505	49	290	272	0	 2.466	 0.475	 0.920	 1.08	 0.70	86.43	 2.41	 0.38	 0.66	 2.44	285.00	296.00	264.00	282.00	 2.44	 2.44	  142	      6	  25165
411	0	007	6121103500	0	4275216	2016	12	11	03	59	46	0.166505	50	118	250	0	 2.699	 0.538	 1.140	 1.20	 0.90	90.70	 2.62	 0.43	 0.75	 2.66	113.00	125.00	240.00	260.00	 2.66	 2.66	  140	      6	  25166
412	0	007	6121103500	0	4284916	2016	12	11	03	59	46	0.166505	282	571	344	0	 2.820	 0.497	 1.100	 1.18	 1.70	22.09	 2.79	 0.39	 0.69	 2.81	562.00	583.00	338.00	352.00	 2.81	 2.81	  114	      6	  25398
413	0	007	6121103500	0	4285148	2016	12	11	03	59	46	0.166505	283	377	311	0	 2.744	 0.566	 1.220	 1.25	 1.80	23.13	 2.65	 0.46	 0.78	 2.69	368.00	390.00	304.00	318.00	 2.69	 2.69	  122	      6	  25399
414	0	007	6121103500	0	4285404	2016	12	11	03	59	46	0.166505	284	181	278	0	 2.362	 0.496	 0.920	 1.08	 1.60	18.64	 2.28	 0.40	 0.69	 2.31	173.00	193.00	274.00	284.00	 2.31	 2.31	  127	      6	  25400
415	0	007	6121103500	0	4288340	2016	12	11	03	59	46	0.166505	350	178	46	0	 0.410	 0.186	 0.060	 0.28	 0.30	180.00	 0.30	 0.20	 0.24	 0.36	177.00	180.00	 46.00	 48.00	 0.36	 0.36	  140	      6	  25466
416	0	007	6121103500	0	4289160	2016	12	11	03	59	46	0.166505	365	368	347	0	 0.936	 0.462	 0.340	 0.66	 0.60	81.04	 0.58	 0.58	 0.59	 0.82	365.00	371.00	344.00	352.00	 0.82	 0.82	  126	      6	  25481
417	0	007	6121103500	0	4289272	2016	12	11	03	59	46	0.166505	366	170	316	0	 1.042	 0.391	 0.320	 0.64	 0.70	119.21	 0.87	 0.37	 0.52	 0.94	166.00	173.00	314.00	322.00	 0.94	 0.94	  125	      6	  25482
419	1	007	6121103500	0	-1	2016	12	11	03	59	46	0.166505	 379	   0	   0	0	0	0	0	0	0	0	0	0	0	0	0	0	0	0	0	0	0	0	0
418	0	007	6121103500	0	4289964	2016	12	11	03	59	47	0.166516	 1	400	399	0	 1.267	 0.362	 0.360	 0.68	 0.70	27.36	 1.15	 0.31	 0.49	 1.19	394.00	405.00	396.00	402.00	 1.19	 1.19	  135	      6	  25496
420	0	007	6121103500	0	4290076	2016	12	11	03	59	47	0.166516	 2	201	372	0	 1.314	 0.504	 0.520	 0.81	 0.90	33.32	 1.08	 0.48	 0.67	 1.18	196.00	206.00	368.00	376.00	 1.18	 1.18	  130	      6	  25497
421	0	007	6121103500	0	4296860	2016	12	11	03	59	47	0.166516	161	360	212	0	 0.882	 0.462	 0.320	 0.64	 0.60	90.00	 0.55	 0.55	 0.58	 0.78	357.00	363.00	210.00	216.00	 0.78	 0.78	  147	      6	  25656
422	0	007	6121103500	0	4305560	2016	12	11	03	59	47	0.166516	374	439	301	0	 2.006	 0.698	 1.100	 1.18	 1.10	121.07	 1.72	 0.64	 0.93	 1.83	434.00	447.00	292.00	308.00	 1.83	 1.83	  106	      6	  25869
423	0	007	6121103500	0	4305820	2016	12	11	03	59	47	0.166516	375	234	285	0	 1.690	 0.723	 0.960	 1.11	 1.00	122.97	 1.31	 0.73	 0.94	 1.50	229.00	240.00	278.00	292.00	 1.50	 1.50	  112	      6	  25870
424	0	007	6121103500	0	4306032	2016	12	11	03	59	47	0.166516	376	28	268	0	 2.210	 0.611	 1.060	 1.16	 1.30	131.72	 2.02	 0.52	 0.83	 2.09	 22.00	 37.00	260.00	276.00	 2.09	 2.09	  109	      6	  25871
425	1	007	6121103500	0	-1	2016	12	11	03	59	47	0.166516	 380	   0	   0	0	0	0	0	0	0	0	0	0	0	0	0	0	0	0	0	0	0	0	0
426	0	007	6121103500	0	4307868	2016	12	11	03	59	48	0.166528	35	300	84	0	 0.592	 0.215	 0.100	 0.36	 0.50	180.00	 0.50	 0.20	 0.29	 0.54	298.00	303.00	 84.00	 86.00	 0.54	 0.54	  162	      6	  25910
427	0	007	6121103500	0	4307868	2016	12	11	03	59	48	0.166528	35	300	96	0	 1.063	 0.407	 0.340	 0.66	 0.80	 4.35	 0.88	 0.39	 0.54	 0.96	296.00	304.00	 94.00	100.00	 0.96	 0.96	  111	      6	  25910
428	0	007	6121103500	0	4307996	2016	12	11	03	59	48	0.166528	36	90	96	0	 1.057	 0.361	 0.300	 0.62	 0.80	170.17	 0.91	 0.33	 0.48	 0.97	 87.00	 95.00	 94.00	100.00	 0.97	 0.97	  115	      6	  25911
429	0	007	6121103500	0	4310632	2016	12	11	03	59	48	0.166528	100	476	413	0	 1.335	 0.553	 0.580	 0.86	 0.80	44.92	 1.06	 0.55	 0.72	 1.19	472.00	482.00	410.00	418.00	 1.19	 1.19	  128	      6	  25975
430	0	007	6121103500	0	4310772	2016	12	11	03	59	48	0.166528	101	257	417	0	 1.438	 0.496	 0.560	 0.84	 0.80	45.50	 1.24	 0.45	 0.66	 1.32	253.00	263.00	412.00	422.00	 1.32	 1.32	  127	      6	  25976
431	0	007	6121103500	0	4310900	2016	12	11	03	59	48	0.166528	102	36	420	0	 1.455	 0.420	 0.480	 0.78	 0.70	43.61	 1.32	 0.36	 0.57	 1.37	 32.00	 41.00	416.00	426.00	 1.37	 1.37	  132	      6	  25977
432	1	007	6121103500	0	-1	2016	12	11	03	59	48	0.166528	 381	   0	   0	0	0	0	0	0	0	0	0	0	0	0	0	0	0	0	0	0	0	0	0
433	0	007	6121103500	0	4342124	2016	12	11	03	59	50	0.166551	104	366	308	0	 1.717	 0.311	 0.420	 0.73	 0.70	42.81	 1.69	 0.25	 0.43	 1.71	362.00	374.00	304.00	316.00	 1.71	 1.71	  128	      6	  26740
434	0	007	6121103500	0	4342244	2016	12	11	03	59	50	0.166551	105	589	72	0	 2.449	 0.406	 0.780	 1.00	 1.40	158.18	 2.44	 0.32	 0.57	 2.46	579.00	597.00	 64.00	 78.00	 2.46	 2.46	  120	      6	  26741
435	0	007	6121103500	0	4342244	2016	12	11	03	59	50	0.166551	105	176	294	0	 1.152	 0.265	 0.240	 0.55	 0.40	61.87	 1.09	 0.22	 0.37	 1.12	173.00	179.00	290.00	300.00	 1.12	 1.12	  138	      6	  26741
436	0	007	6121103500	0	4342456	2016	12	11	03	59	50	0.166551	106	402	69	0	 2.820	 0.415	 0.920	 1.08	 1.70	177.97	 2.84	 0.32	 0.58	 2.86	390.00	411.00	 62.00	 76.00	 2.86	 2.86	  116	      6	  26742
437	0	007	6121103500	0	4342644	2016	12	11	03	59	50	0.166551	107	216	67	0	 3.190	 0.511	 1.280	 1.28	 1.80	166.91	 3.19	 0.40	 0.71	 3.21	202.00	228.00	 60.00	 74.00	 3.21	 3.21	  107	      6	  26743
438	0	007	6121103500	0	4342864	2016	12	11	03	59	50	0.166551	108	27	65	0	 3.323	 0.513	 1.340	 1.31	 1.70	164.59	 3.33	 0.40	 0.72	 3.36	 13.00	 39.00	 56.00	 72.00	 3.36	 3.36	   97	      6	  26744
439	0	007	6121103500	0	4344720	2016	12	11	03	59	50	0.166551	149	468	227	0	 1.194	 0.405	 0.380	 0.70	 0.50	89.58	 1.03	 0.37	 0.54	 1.10	466.00	471.00	222.00	232.00	 1.10	 1.10	  133	      6	  26785
440	0	007	6121103500	0	4344836	2016	12	11	03	59	50	0.166551	150	264	219	0	 1.083	 0.400	 0.340	 0.66	 0.40	88.43	 0.91	 0.37	 0.53	 0.98	262.00	266.00	214.00	224.00	 0.98	 0.98	  138	      6	  26786
441	0	007	6121103500	0	4348540	2016	12	11	03	59	50	0.166551	240	532	304	0	 1.355	 0.601	 0.640	 0.90	 0.80	122.75	 1.02	 0.63	 0.78	 1.20	528.00	537.00	300.00	310.00	 1.20	 1.20	   98	      6	  26876
442	0	007	6121103500	0	4348688	2016	12	11	03	59	50	0.166551	241	568	218	0	 0.410	 0.186	 0.060	 0.28	 0.30	180.00	 0.30	 0.20	 0.24	 0.36	567.00	570.00	218.00	220.00	 0.36	 0.36	  152	      6	  26877
443	0	007	6121103500	0	4348688	2016	12	11	03	59	50	0.166551	241	334	317	0	 1.208	 0.548	 0.520	 0.81	 0.80	136.07	 0.89	 0.59	 0.71	 1.06	330.00	339.00	314.00	322.00	 1.06	 1.06	   99	      6	  26877
444	0	007	6121103500	0	4348840	2016	12	11	03	59	50	0.166551	242	374	226	0	 0.410	 0.186	 0.060	 0.28	 0.30	180.00	 0.30	 0.20	 0.24	 0.36	373.00	376.00	226.00	228.00	 0.36	 0.36	  156	      6	  26878
445	0	007	6121103500	0	4348840	2016	12	11	03	59	50	0.166551	242	136	330	0	 1.102	 0.416	 0.360	 0.68	 0.80	159.75	 0.92	 0.39	 0.55	 1.00	132.00	140.00	326.00	334.00	 1.00	 1.00	  100	      6	  26878
446	0	007	6121103500	0	4354276	2016	12	11	03	59	50	0.166551	374	499	250	0	 1.029	 0.445	 0.360	 0.68	 0.70	33.30	 0.79	 0.46	 0.58	 0.91	496.00	504.00	248.00	254.00	 0.91	 0.91	  128	      6	  27010
447	1	007	6121103500	0	-1	2016	12	11	03	59	50	0.166551	 380	   0	   0	0	0	0	0	0	0	0	0	0	0	0	0	0	0	0	0	0	0	0	0
448	0	007	6121103500	0	4383472	2016	12	11	03	59	52	0.166574	329	401	107	0	 0.940	 0.406	 0.300	 0.62	 0.60	38.22	 0.72	 0.42	 0.53	 0.83	398.00	404.00	104.00	110.00	 0.83	 0.83	  137	      6	  27725
449	1	007	6121103500	0	-1	2016	12	11	03	59	52	0.166574	 379	   0	   0	0	0	0	0	0	0	0	0	0	0	0	0	0	0	0	0	0	0	0	0
450	0	007	6121103500	0	4389704	2016	12	11	03	59	53	0.166586	101	554	308	0	 0.845	 0.271	 0.180	 0.48	 0.60	29.01	 0.74	 0.24	 0.37	 0.78	551.00	557.00	306.00	312.00	 0.78	 0.78	  155	      6	  27876
451	0	007	6121103500	0	4389704	2016	12	11	03	59	53	0.166586	101	60	454	0	 0.570	 0.268	 0.120	 0.39	 0.30	90.00	 0.40	 0.30	 0.34	 0.50	 59.00	 62.00	452.00	456.00	 0.50	 0.50	  148	      6	  27876
452	1	007	6121103500	0	-1	2016	12	11	03	59	53	0.166586	 380	   0	   0	0	0	0	0	0	0	0	0	0	0	0	0	0	0	0	0	0	0	0	0
453	0	007	6121103500	0	4409436	2016	12	11	03	59	54	0.166597	200	168	135	0	 0.950	 0.402	 0.300	 0.62	 0.70	140.47	 0.74	 0.41	 0.52	 0.84	165.00	172.00	132.00	138.00	 0.84	 0.84	  117	      6	  28355
454	1	007	6121103500	0	-1	2016	12	11	03	59	54	0.166597	 380	   0	   0	0	0	0	0	0	0	0	0	0	0	0	0	0	0	0	0	0	0	0	0
455	0	007	6121103500	0	4424008	2016	12	11	03	59	55	0.166609	174	169	312	0	 1.072	 0.380	 0.320	 0.64	 0.50	52.51	 0.91	 0.35	 0.51	 0.98	165.00	172.00	308.00	316.00	 0.98	 0.98	  138	      6	  28709
456	1	007	6121103500	0	-1	2016	12	11	03	59	55	0.166609	 380	   0	   0	0	0	0	0	0	0	0	0	0	0	0	0	0	0	0	0	0	0	0	0
457	0	007	6121103500	0	4440908	2016	12	11	03	59	56	0.166620	207	583	450	0	 1.181	 0.410	 0.380	 0.70	 0.60	136.73	 1.01	 0.37	 0.55	 1.08	579.00	588.00	446.00	454.00	 1.08	 1.08	  116	      6	  29122
458	0	007	6121103500	0	4441024	2016	12	11	03	59	56	0.166620	208	357	400	0	 1.981	 0.437	 0.680	 0.93	 1.40	155.00	 1.89	 0.36	 0.60	 1.93	348.00	364.00	396.00	406.00	 1.93	 1.93	   98	      6	  29123
459	0	007	6121103500	0	4441188	2016	12	11	03	59	56	0.166620	209	131	351	0	 2.032	 0.451	 0.720	 0.96	 1.40	150.16	 1.94	 0.37	 0.62	 1.98	121.00	136.00	346.00	358.00	 1.98	 1.98	   99	      6	  29124
460	0	007	6121103500	0	4447604	2016	12	11	03	59	56	0.166620	359	423	88	0	 1.159	 0.461	 0.420	 0.73	 0.90	 9.52	 0.94	 0.45	 0.61	 1.04	420.00	429.00	 84.00	 92.00	 1.04	 1.04	  148	      6	  29274
461	0	007	6121103500	0	4447728	2016	12	11	03	59	56	0.166620	360	227	78	0	 1.483	 0.567	 0.660	 0.92	 1.10	17.73	 1.22	 0.54	 0.75	 1.34	221.00	233.00	 74.00	 82.00	 1.34	 1.34	  128	      6	  29275
462	0	007	6121103500	0	4447892	2016	12	11	03	59	56	0.166620	361	27	68	0	 1.339	 0.552	 0.580	 0.86	 0.90	27.07	 1.06	 0.55	 0.72	 1.19	 22.00	 33.00	 64.00	 72.00	 1.19	 1.19	  131	      6	  29276
463	1	007	6121103500	0	-1	2016	12	11	03	59	56	0.166620	 380	   0	   0	0	0	0	0	0	0	0	0	0	0	0	0	0	0	0	0	0	0	0	0
464	0	007	6121103500	0	4450368	2016	12	11	03	59	57	0.166632	40	403	211	0	 1.218	 0.523	 0.500	 0.80	 0.60	67.62	 0.94	 0.53	 0.68	 1.08	399.00	406.00	206.00	216.00	 1.08	 1.08	  144	      6	  29335
465	0	007	6121103500	0	4450476	2016	12	11	03	59	57	0.166632	41	178	208	0	 1.292	 0.394	 0.400	 0.71	 0.60	62.50	 1.15	 0.35	 0.53	 1.20	175.00	182.00	202.00	214.00	 1.20	 1.20	  153	      6	  29336
466	1	007	6121103500	0	-1	2016	12	11	03	59	57	0.166632	 380	   0	   0	0	0	0	0	0	0	0	0	0	0	0	0	0	0	0	0	0	0	0	0
467	2	007	6121103500	0	-1	2016	12	11	03	59	57	0.166632	22035	   0	   0	0	0	0	0	0	0	0	0	0	0	0	0	0	0	0	0	0	0	0	0
-99	-99	-99	-99	-99	-99	-99	-99	-99	-99	-99	-99	-99	-99	-99	-99	-99	-99	-99	-99	-99	-99	-99	-99	-99	-99	-99	-99	-99	-99	-99	-99	-99	-99	-99	-99	