PIP_Rev
1701.0
Instr_Num
007
yr	 mo	 dy	 hr
2016	 12	 11	 06
Station
HKL
RecNum	 Part_ID	 Wad_Dia	 vel_h_2	 vel_v_2	 minute_p
75 	  62 	  0.71 	  -6.92 	  0.37 	  0
77 	  62 	  0.70 	  -6.94 	  0.38 	  0
200 	  168 	  0.81 	  -5.76 	  -0.07 	  0
202 	  168 	  0.80 	  -5.81 	  -0.08 	  0
282 	  233 	  0.86 	  -6.30 	  -0.37 	  0
283 	  233 	  0.84 	  -6.39 	  -0.39 	  0
312 	  257 	  0.53 	  -6.05 	  -0.00 	  0
313 	  257 	  0.50 	  -6.09 	  0.00 	  0
368 	  298 	  0.98 	  -6.28 	  -0.18 	  0
371 	  298 	  0.96 	  -6.36 	  -0.20 	  0
403 	  328 	  1.33 	  -6.07 	  -0.04 	  0
406 	  328 	  1.30 	  -6.10 	  -0.06 	  0
481 	  393 	  0.80 	  -5.80 	  0.11 	  0
482 	  393 	  0.80 	  -5.84 	  0.09 	  0
587 	  485 	  0.92 	  -5.98 	  -0.00 	  0
589 	  485 	  0.92 	  -6.00 	  -0.00 	  0
637 	  528 	  0.89 	  -5.76 	  -0.12 	  0
639 	  528 	  0.87 	  -5.83 	  -0.12 	  0
644 	  532 	  0.58 	  -6.00 	  -0.24 	  0
647 	  532 	  0.55 	  -6.01 	  -0.23 	  0
649 	  532 	  0.53 	  -6.07 	  -0.25 	  0
675 	  554 	  1.46 	  -6.21 	  0.07 	  0
677 	  554 	  1.40 	  -6.27 	  0.08 	  0
689 	  564 	  0.84 	  -5.96 	  0.09 	  0
693 	  564 	  0.81 	  -6.04 	  0.11 	  0
1104 	  917 	  1.06 	  -6.67 	  -0.36 	  0
1106 	  917 	  1.05 	  -6.70 	  -0.39 	  0
1149 	  953 	  0.90 	  -7.02 	  -0.70 	  0
1151 	  953 	  0.87 	  -7.07 	  -0.73 	  0
1233 	  1022 	  1.29 	  -7.32 	  -0.33 	  0
1235 	  1022 	  1.30 	  -7.38 	  -0.33 	  0
1375 	  1139 	  0.80 	  -7.27 	  -1.06 	  0
1377 	  1139 	  0.77 	  -7.29 	  -1.11 	  0
1424 	  1181 	  0.92 	  -8.81 	  -0.02 	  0
1425 	  1181 	  0.96 	  -8.84 	  0.03 	  0
1431 	  1186 	  0.75 	  -7.82 	  -0.15 	  0
1432 	  1186 	  0.75 	  -7.89 	  -0.08 	  0
1452 	  1202 	  1.06 	  -7.89 	  0.50 	  0
1453 	  1202 	  1.02 	  -7.95 	  0.46 	  0
1597 	  1325 	  1.06 	  -8.34 	  0.29 	  0
1598 	  1325 	  1.02 	  -8.42 	  0.30 	  0
1717 	  1425 	  0.80 	  -8.07 	  0.43 	  0
1718 	  1425 	  0.77 	  -8.14 	  0.41 	  0
1742 	  1442 	  0.62 	  -8.18 	  0.70 	  0
1744 	  1442 	  0.64 	  -8.23 	  0.71 	  0
1794 	  1485 	  0.73 	  -8.01 	  -0.06 	  0
1795 	  1485 	  0.75 	  -8.09 	  -0.02 	  0
1839 	  1522 	  0.71 	  -8.34 	  -0.05 	  0
1841 	  1522 	  0.71 	  -8.42 	  -0.05 	  0
2107 	  1756 	  0.98 	  -7.57 	  -0.25 	  0
2109 	  1756 	  1.00 	  -7.65 	  -0.25 	  0
2268 	  1891 	  1.29 	  -7.23 	  -0.72 	  0
2269 	  1891 	  1.33 	  -7.31 	  -0.74 	  0
2582 	  2176 	  0.73 	  -6.61 	  -0.24 	  0
2583 	  2176 	  0.71 	  -6.67 	  -0.23 	  0
2606 	  2194 	  1.33 	  -6.62 	  0.13 	  0
2607 	  2194 	  1.34 	  -6.71 	  0.13 	  0
2856 	  2404 	  1.14 	  -7.45 	  0.34 	  0
2857 	  2404 	  1.16 	  -7.46 	  0.35 	  0
2942 	  2476 	  0.75 	  -5.87 	  -1.73 	  0
2943 	  2476 	  0.71 	  -5.89 	  -1.74 	  0
2950 	  2482 	  0.71 	  -5.16 	  -1.76 	  0
2951 	  2482 	  0.73 	  -5.21 	  -1.78 	  0
3073 	  2577 	  1.12 	  -6.35 	  -1.13 	  0
3074 	  2577 	  1.14 	  -6.39 	  -1.08 	  0
3104 	  2596 	  0.68 	  -5.94 	  -0.47 	  0
3105 	  2596 	  0.68 	  -5.99 	  -0.48 	  0
3154 	  2638 	  0.73 	  -7.83 	  -0.70 	  0
3156 	  2638 	  0.71 	  -7.87 	  -0.75 	  0
3229 	  2701 	  0.68 	  -7.83 	  0.77 	  0
3231 	  2701 	  0.70 	  -7.92 	  0.77 	  0
3311 	  2767 	  1.08 	  -8.75 	  0.36 	  0
3313 	  2767 	  1.06 	  -8.85 	  0.35 	  0
3326 	  2779 	  1.23 	  -8.21 	  0.20 	  0
3328 	  2779 	  1.17 	  -8.29 	  0.21 	  0
3339 	  2790 	  1.50 	  -8.10 	  0.58 	  0
3341 	  2790 	  1.56 	  -8.20 	  0.63 	  0
3399 	  2836 	  0.60 	  -8.37 	  -0.00 	  0
3401 	  2836 	  0.58 	  -8.45 	  0.00 	  0
3411 	  2844 	  1.20 	  -8.22 	  0.80 	  0
3412 	  2844 	  1.22 	  -8.29 	  0.80 	  0
3991 	  3324 	  1.05 	  -6.82 	  -0.57 	  0
3994 	  3324 	  1.01 	  -6.91 	  -0.57 	  0
4092 	  3409 	  1.18 	  -6.40 	  -0.71 	  0
4093 	  3409 	  1.15 	  -6.43 	  -0.71 	  0
4144 	  3450 	  0.32 	  -6.66 	  -0.63 	  0
4151 	  3450 	  0.32 	  -6.74 	  -0.63 	  0
4337 	  3601 	  0.53 	  -5.98 	  -0.06 	  0
4339 	  3601 	  0.55 	  -6.06 	  -0.04 	  0
4404 	  3655 	  0.84 	  -6.20 	  -0.07 	  0
4405 	  3655 	  0.81 	  -6.23 	  -0.08 	  0
4491 	  3721 	  0.66 	  -6.55 	  0.37 	  0
4495 	  3721 	  0.66 	  -6.58 	  0.36 	  0
4662 	  3856 	  0.42 	  -6.04 	  -1.44 	  0
4665 	  3856 	  0.42 	  -6.12 	  -1.44 	  0
4723 	  3901 	  2.01 	  -5.97 	  -0.32 	  0
4724 	  3901 	  2.02 	  -6.03 	  -0.30 	  0
4898 	  4043 	  0.62 	  -6.59 	  0.40 	  0
4901 	  4043 	  0.64 	  -6.63 	  0.44 	  0
4950 	  4086 	  1.71 	  -8.31 	  0.14 	  0
4952 	  4086 	  1.70 	  -8.37 	  0.13 	  0
4977 	  4106 	  1.12 	  -7.28 	  0.52 	  0
4978 	  4106 	  1.15 	  -7.32 	  0.51 	  0
5167 	  4266 	  1.03 	  -5.35 	  -0.67 	  0
5169 	  4266 	  1.02 	  -5.39 	  -0.62 	  0
5170 	  4266 	  1.00 	  -5.45 	  -0.60 	  0
5196 	  4287 	  0.80 	  -7.42 	  0.43 	  0
5197 	  4287 	  0.81 	  -7.49 	  0.45 	  0
5202 	  4291 	  0.60 	  -7.71 	  0.60 	  0
5203 	  4291 	  0.60 	  -7.74 	  0.59 	  0
5320 	  4382 	  0.64 	  -8.66 	  0.03 	  0
5322 	  4382 	  0.64 	  -8.73 	  0.02 	  0
5628 	  4642 	  0.78 	  -6.57 	  -0.51 	  0
5630 	  4642 	  0.75 	  -6.64 	  -0.47 	  0
5721 	  4714 	  0.70 	  -7.12 	  -0.45 	  0
5722 	  4714 	  0.73 	  -7.21 	  -0.45 	  0
5760 	  4748 	  0.66 	  -7.12 	  -0.69 	  0
5762 	  4748 	  0.64 	  -7.19 	  -0.69 	  0
5917 	  4890 	  1.16 	  -8.96 	  0.01 	  0
5919 	  4890 	  1.13 	  -9.05 	  -0.00 	  0
6900 	  5730 	  1.39 	  -6.68 	  -1.14 	  0
6901 	  5730 	  1.46 	  -6.76 	  -1.17 	  0
7077 	  5878 	  0.66 	  -5.83 	  -1.54 	  0
7078 	  5878 	  0.66 	  -5.89 	  -1.58 	  0
7120 	  5906 	  0.68 	  -4.57 	  -1.28 	  0
7121 	  5906 	  0.66 	  -4.62 	  -1.31 	  0
7123 	  5906 	  0.66 	  -4.66 	  -1.32 	  0
7126 	  5906 	  0.64 	  -4.74 	  -1.31 	  0
7130 	  5911 	  1.30 	  -4.86 	  -1.26 	  0
7131 	  5911 	  1.34 	  -4.94 	  -1.25 	  0
7141 	  5920 	  1.00 	  -5.14 	  -0.13 	  0
7142 	  5920 	  1.05 	  -5.17 	  -0.20 	  0
7152 	  5929 	  0.92 	  -5.61 	  -1.44 	  0
7154 	  5929 	  0.94 	  -5.65 	  -1.48 	  0
7183 	  5955 	  1.02 	  -6.49 	  -0.36 	  0
7184 	  5955 	  1.07 	  -6.52 	  -0.36 	  0
7247 	  6010 	  1.44 	  -7.27 	  -0.24 	  0
7249 	  6010 	  1.51 	  -7.32 	  -0.22 	  0
7342 	  6089 	  0.98 	  -6.76 	  0.06 	  0
7343 	  6089 	  1.03 	  -6.80 	  0.06 	  0
7352 	  6094 	  0.39 	  -5.95 	  -0.08 	  0
7355 	  6094 	  0.39 	  -6.00 	  -0.08 	  0
7375 	  6113 	  1.13 	  -5.90 	  0.59 	  0
7376 	  6113 	  1.08 	  -5.91 	  0.55 	  0
7447 	  6173 	  0.89 	  -7.02 	  0.48 	  0
7450 	  6173 	  0.86 	  -7.06 	  0.50 	  0
7577 	  6278 	  0.73 	  -5.93 	  -0.83 	  0
7579 	  6278 	  0.73 	  -5.96 	  -0.86 	  0
7580 	  6278 	  0.77 	  -6.00 	  -0.87 	  0
7719 	  6396 	  0.70 	  -7.36 	  0.01 	  0
7721 	  6396 	  0.70 	  -7.44 	  -0.01 	  0
7723 	  6398 	  0.89 	  -7.63 	  0.15 	  0
7724 	  6398 	  0.86 	  -7.69 	  0.15 	  0
7757 	  6427 	  0.62 	  -6.61 	  -0.38 	  0
7760 	  6427 	  0.60 	  -6.67 	  -0.38 	  0
7842 	  6500 	  0.62 	  -7.53 	  -0.46 	  0
7843 	  6500 	  0.64 	  -7.62 	  -0.46 	  0
7868 	  6521 	  0.68 	  -7.01 	  -1.34 	  0
7869 	  6521 	  0.70 	  -7.10 	  -1.31 	  0
7903 	  6552 	  1.91 	  -6.94 	  -0.30 	  0
7906 	  6552 	  1.99 	  -7.02 	  -0.21 	  0
7905 	  6554 	  0.55 	  -7.49 	  -0.48 	  0
7908 	  6554 	  0.55 	  -7.54 	  -0.47 	  0
8984 	  940 	  0.66 	  -8.23 	  -0.22 	  1
8988 	  940 	  0.68 	  -8.29 	  -0.20 	  1
9102 	  1050 	  0.32 	  -7.71 	  -0.30 	  1
9105 	  1050 	  0.32 	  -7.79 	  -0.30 	  1
9123 	  1068 	  1.02 	  -8.01 	  -0.12 	  1
9124 	  1068 	  1.03 	  -8.08 	  -0.11 	  1
10871 	  2684 	  0.39 	  -6.42 	  -0.15 	  1
10874 	  2684 	  0.39 	  -6.46 	  -0.23 	  1
11016 	  2812 	  0.70 	  -5.53 	  -0.30 	  1
11017 	  2812 	  0.68 	  -5.53 	  -0.31 	  1
14794 	  2065 	  0.64 	  -6.75 	  -0.03 	  2
14797 	  2065 	  0.64 	  -6.84 	  -0.03 	  2
14888 	  2150 	  0.94 	  -7.49 	  0.23 	  2
14889 	  2150 	  0.94 	  -7.52 	  0.23 	  2
16315 	  3484 	  1.12 	  -6.38 	  -0.48 	  2
16317 	  3484 	  1.09 	  -6.43 	  -0.51 	  2
16491 	  3642 	  1.50 	  -6.60 	  0.68 	  2
16492 	  3642 	  1.45 	  -6.63 	  0.66 	  2
16780 	  3902 	  1.23 	  -8.63 	  0.36 	  2
16781 	  3902 	  1.17 	  -8.71 	  0.31 	  2
17038 	  4146 	  0.66 	  -8.06 	  0.13 	  2
17039 	  4146 	  0.66 	  -8.13 	  0.11 	  2
18384 	  5404 	  1.11 	  -8.55 	  0.46 	  2
18385 	  5404 	  1.14 	  -8.61 	  0.46 	  2
18649 	  5652 	  1.11 	  -9.45 	  0.93 	  2
18653 	  5652 	  1.14 	  -9.49 	  0.92 	  2
19228 	  6185 	  1.91 	  -9.52 	  1.01 	  2
19230 	  6185 	  1.85 	  -9.56 	  1.04 	  2
19242 	  6197 	  1.35 	  -9.13 	  0.54 	  2
19243 	  6197 	  1.32 	  -9.19 	  0.55 	  2
19633 	  322 	  0.78 	  -7.90 	  0.48 	  3
19636 	  322 	  0.75 	  -7.92 	  0.48 	  3
20058 	  719 	  2.71 	  -8.31 	  -0.14 	  3
20059 	  719 	  2.81 	  -8.34 	  -0.16 	  3
20542 	  1171 	  0.77 	  -8.14 	  0.35 	  3
20543 	  1171 	  0.73 	  -8.16 	  0.36 	  3
21447 	  2016 	  0.28 	  -6.87 	  -0.58 	  3
21449 	  2016 	  0.28 	  -6.92 	  -0.53 	  3
21461 	  2028 	  1.13 	  -7.24 	  0.30 	  3
21464 	  2028 	  1.11 	  -7.26 	  0.31 	  3
21696 	  2243 	  0.71 	  -6.99 	  0.28 	  3
21697 	  2243 	  0.75 	  -7.03 	  0.29 	  3
22118 	  2646 	  0.80 	  -6.18 	  0.12 	  3
22119 	  2646 	  0.80 	  -6.23 	  0.10 	  3
22532 	  3031 	  1.64 	  -7.00 	  -0.03 	  3
22533 	  3031 	  1.59 	  -7.06 	  -0.04 	  3
22562 	  3059 	  0.32 	  -6.80 	  -0.17 	  3
22564 	  3059 	  0.32 	  -6.88 	  -0.17 	  3
22563 	  3060 	  1.68 	  -6.63 	  0.09 	  3
22565 	  3060 	  1.66 	  -6.67 	  0.08 	  3
22871 	  3342 	  0.77 	  -6.49 	  0.13 	  3
22873 	  3342 	  0.75 	  -6.51 	  0.11 	  3
22879 	  3348 	  0.42 	  -7.31 	  0.21 	  3
22883 	  3348 	  0.42 	  -7.37 	  0.18 	  3
23569 	  3988 	  0.50 	  -6.54 	  -0.23 	  3
23573 	  3988 	  0.50 	  -6.60 	  -0.25 	  3
23780 	  4183 	  2.06 	  -6.35 	  0.12 	  3
23785 	  4183 	  2.01 	  -6.40 	  0.08 	  3
24588 	  4931 	  0.84 	  -6.99 	  0.79 	  3
24590 	  4931 	  0.89 	  -7.03 	  0.80 	  3
24669 	  5007 	  0.66 	  -6.14 	  -0.92 	  3
24672 	  5007 	  0.66 	  -6.14 	  -0.91 	  3
24702 	  5033 	  0.77 	  -7.05 	  -0.00 	  3
24703 	  5033 	  0.73 	  -7.09 	  -0.00 	  3
25313 	  5600 	  1.43 	  -6.59 	  0.40 	  3
25315 	  5600 	  1.43 	  -6.62 	  0.43 	  3
25352 	  5635 	  1.25 	  -7.55 	  0.99 	  3
25353 	  5635 	  1.20 	  -7.61 	  0.98 	  3
28102 	  8208 	  1.22 	  -7.29 	  0.58 	  3
28103 	  8208 	  1.23 	  -7.33 	  0.61 	  3
29063 	  9110 	  0.73 	  -6.49 	  -0.03 	  3
29065 	  9110 	  0.73 	  -6.48 	  -0.02 	  3
29970 	  9950 	  3.31 	  -7.75 	  0.21 	  3
29971 	  9950 	  3.22 	  -7.79 	  0.23 	  3
33434 	  185 	  1.05 	  -6.47 	  0.74 	  6
33436 	  185 	  1.06 	  -6.50 	  0.75 	  6
33587 	  48 	  1.56 	  -6.92 	  0.29 	  7
33588 	  48 	  1.61 	  -6.95 	  0.31 	  7
33744 	  188 	  1.32 	  -5.94 	  0.01 	  7
33745 	  188 	  1.27 	  -5.98 	  0.00 	  7
34800 	  1125 	  0.86 	  -5.76 	  0.30 	  7
34802 	  1125 	  0.86 	  -5.79 	  0.31 	  7
35608 	  181 	  1.17 	  -5.34 	  -0.00 	  8
35610 	  181 	  1.12 	  -5.37 	  -0.06 	  8
36557 	  1036 	  1.66 	  -5.81 	  0.73 	  8
36559 	  1036 	  1.63 	  -5.82 	  0.73 	  8
37834 	  2213 	  1.03 	  -7.32 	  -0.33 	  8
37835 	  2213 	  1.03 	  -7.35 	  -0.31 	  8
37844 	  2220 	  0.70 	  -7.59 	  -0.74 	  8
37845 	  2220 	  0.73 	  -7.65 	  -0.76 	  8
38184 	  2538 	  0.87 	  -5.99 	  0.21 	  8
38185 	  2538 	  0.87 	  -6.02 	  0.15 	  8
39147 	  742 	  1.17 	  -7.03 	  -0.20 	  9
39148 	  742 	  1.14 	  -7.10 	  -0.18 	  9
39554 	  1115 	  1.01 	  -6.41 	  0.24 	  9
39556 	  1115 	  0.98 	  -6.46 	  0.23 	  9
39573 	  1130 	  0.53 	  -7.06 	  1.07 	  9
39576 	  1130 	  0.50 	  -7.07 	  1.06 	  9
39865 	  1405 	  1.92 	  -8.81 	  0.88 	  9
39866 	  1405 	  1.83 	  -8.89 	  0.87 	  9
41796 	  3204 	  1.02 	  -6.31 	  0.08 	  9
41798 	  3204 	  1.03 	  -6.33 	  0.09 	  9
41800 	  3204 	  1.01 	  -6.38 	  0.08 	  9
41994 	  3382 	  1.38 	  -7.02 	  -0.21 	  9
41995 	  3382 	  1.34 	  -7.08 	  -0.18 	  9
42088 	  3461 	  1.87 	  -5.87 	  -0.12 	  9
42089 	  3461 	  1.83 	  -5.89 	  -0.10 	  9
42243 	  3598 	  0.68 	  -6.18 	  0.16 	  9
42244 	  3598 	  0.68 	  -6.23 	  0.17 	  9
-99 	  -99 	  -99 	  -99 	   -99 	   -99 	    